FP4_E2M1/src/fft_sim.vcd
$date
	Mon Jan 05 13:15:09 2026
$end
$version
	Icarus Verilog
$end
$timescale
	1ps
$end
$scope module tb_fft $end
$var wire 8 ! ext_rd_data [7:0] $end
$var wire 1 " done $end
$var parameter 32 # ADDR_WIDTH $end
$var parameter 32 $ MAX_N $end
$var reg 6 % N_config [5:0] $end
$var reg 1 & clk $end
$var reg 5 ' ext_rd_addr [4:0] $end
$var reg 5 ( ext_wr_addr [4:0] $end
$var reg 8 ) ext_wr_data [7:0] $end
$var reg 1 * ext_wr_en $end
$var reg 1 + rst $end
$var reg 1 , start $end
$var integer 32 - i [31:0] $end
$var integer 32 . j [31:0] $end
$var integer 32 / output_index [31:0] $end
$var integer 32 0 test_fail [31:0] $end
$var integer 32 1 test_pass [31:0] $end
$scope module uut $end
$var wire 6 2 N_config [5:0] $end
$var wire 1 & clk $end
$var wire 5 3 ext_rd_addr [4:0] $end
$var wire 8 4 ext_rd_data [7:0] $end
$var wire 5 5 ext_wr_addr [4:0] $end
$var wire 8 6 ext_wr_data [7:0] $end
$var wire 1 * ext_wr_en $end
$var wire 1 7 final_wr_en $end
$var wire 1 + rst $end
$var wire 1 , start $end
$var wire 8 8 twiddle_bus [7:0] $end
$var wire 1 9 next_step $end
$var wire 8 : mem_out_bus [7:0] $end
$var wire 5 ; k_idx [4:0] $end
$var wire 5 < idx_b [4:0] $end
$var wire 5 = idx_a [4:0] $end
$var wire 8 > final_wr_data [7:0] $end
$var wire 5 ? final_wr_addr [4:0] $end
$var wire 5 @ final_rd_addr [4:0] $end
$var wire 1 A done_stage $end
$var wire 1 B done_fft_agu $end
$var wire 1 " done $end
$var wire 3 C curr_stage [2:0] $end
$var wire 1 D core_wr_en $end
$var wire 8 E core_wr_data [7:0] $end
$var wire 5 F core_wr_addr [4:0] $end
$var wire 5 G core_rd_addr [4:0] $end
$var wire 5 H bit_rev_addr [4:0] $end
$var wire 1 I actual_bank_sel_for_mem $end
$var parameter 32 J ADDR_WIDTH $end
$var parameter 32 K MAX_N $end
$var reg 1 L bank_sel $end
$var reg 1 M is_processing $end
$var reg 1 N load_done $end
$var reg 1 O loading_phase $end
$scope module agu_inst $end
$var wire 6 P N [5:0] $end
$var wire 1 & clk $end
$var wire 5 Q k [4:0] $end
$var wire 1 + reset $end
$var wire 8 R twiddle_output [7:0] $end
$var wire 5 S num_groups [4:0] $end
$var wire 1 9 next_step $end
$var wire 5 T k_idx [4:0] $end
$var wire 5 U idx_b [4:0] $end
$var wire 5 V idx_a [4:0] $end
$var wire 6 W group_size [5:0] $end
$var wire 5 X group_offset [4:0] $end
$var parameter 32 Y ADDR_WIDTH $end
$var parameter 32 Z MAX_N $end
$var reg 5 [ butterfly [4:0] $end
$var reg 3 \ curr_stage [2:0] $end
$var reg 1 B done_fft $end
$var reg 1 A done_stage $end
$var reg 5 ] group [4:0] $end
$var reg 5 ^ stride [4:0] $end
$var reg 3 _ total_stages [2:0] $end
$scope module tw_rom $end
$var wire 5 ` k [4:0] $end
$var wire 6 a n [5:0] $end
$var parameter 32 b ADDR_WIDTH $end
$var parameter 32 c MAX_N $end
$var reg 5 d scaled_k [4:0] $end
$var reg 5 e table_index [4:0] $end
$var reg 8 f twiddle_out [7:0] $end
$var reg 1 g use_conjugate $end
$upscope $end
$upscope $end
$scope module bit_reverse_inst $end
$var wire 5 h in [4:0] $end
$var parameter 32 i MAX_N $end
$var parameter 32 j WIDTH $end
$var reg 5 k out [4:0] $end
$var integer 32 l i [31:0] $end
$upscope $end
$scope module fft_core_inst $end
$var wire 1 & clk $end
$var wire 1 B done_fft_agu $end
$var wire 5 m idx_a [4:0] $end
$var wire 5 n idx_b [4:0] $end
$var wire 1 + rst $end
$var wire 1 , start $end
$var wire 8 o twiddle_in [7:0] $end
$var wire 8 p outY [7:0] $end
$var wire 8 q outX [7:0] $end
$var wire 8 r int_rd_data [7:0] $end
$var parameter 32 s ADDR_WIDTH $end
$var parameter 4 t COMPUTE $end
$var parameter 4 u FETCH_A $end
$var parameter 4 v FETCH_B $end
$var parameter 4 w FINISH $end
$var parameter 4 x IDLE $end
$var parameter 32 y MAX_N $end
$var parameter 4 z UPDATE_AGU $end
$var parameter 4 { WAIT_A $end
$var parameter 4 | WAIT_B $end
$var parameter 4 } WRITE_X $end
$var parameter 4 ~ WRITE_Y $end
$var reg 1 !" butterfly_valid $end
$var reg 1 " done_fft $end
$var reg 5 "" idx_a_reg [4:0] $end
$var reg 5 #" idx_b_reg [4:0] $end
$var reg 5 $" int_rd_addr [4:0] $end
$var reg 5 %" int_wr_addr [4:0] $end
$var reg 8 &" int_wr_data [7:0] $end
$var reg 1 D int_wr_en $end
$var reg 4 '" next_state [3:0] $end
$var reg 1 9 next_step $end
$var reg 8 (" outX_reg [7:0] $end
$var reg 8 )" outY_reg [7:0] $end
$var reg 4 *" present_state [3:0] $end
$var reg 8 +" regA [7:0] $end
$var reg 8 ," regB [7:0] $end
$scope module butterfly_inst $end
$var wire 8 -" A [7:0] $end
$var wire 8 ." B [7:0] $end
$var wire 8 /" W [7:0] $end
$var wire 8 0" wb_product [7:0] $end
$var wire 8 1" Y [7:0] $end
$var wire 8 2" X [7:0] $end
$scope module add_inst $end
$var wire 8 3" a [7:0] $end
$var wire 8 4" b [7:0] $end
$var wire 1 5" sub $end
$var wire 4 6" out_real [3:0] $end
$var wire 4 7" out_imag [3:0] $end
$var wire 8 8" out [7:0] $end
$var wire 4 9" b_real [3:0] $end
$var wire 4 :" b_imag [3:0] $end
$var wire 4 ;" a_real [3:0] $end
$var wire 4 <" a_imag [3:0] $end
$scope module adder_imag $end
$var wire 4 =" a [3:0] $end
$var wire 1 >" a_larger $end
$var wire 4 ?" b [3:0] $end
$var wire 1 @" do_sub $end
$var wire 1 A" sign_b_eff $end
$var wire 1 5" sub $end
$var wire 1 B" sign_s $end
$var wire 1 C" sign_l $end
$var wire 1 D" sign_b $end
$var wire 1 E" sign_a $end
$var wire 3 F" sig_s_unaligned [2:0] $end
$var wire 3 G" sig_s [2:0] $end
$var wire 4 H" sig_result_raw [3:0] $end
$var wire 3 I" sig_l [2:0] $end
$var wire 4 J" out [3:0] $end
$var wire 1 K" mant_s $end
$var wire 1 L" mant_out $end
$var wire 1 M" mant_l $end
$var wire 1 N" mant_b $end
$var wire 1 O" mant_a $end
$var wire 1 P" hidden_s $end
$var wire 1 Q" hidden_l $end
$var wire 2 R" exp_s [1:0] $end
$var wire 2 S" exp_l [1:0] $end
$var wire 2 T" exp_diff [1:0] $end
$var wire 2 U" exp_b [1:0] $end
$var wire 2 V" exp_a [1:0] $end
$var reg 2 W" exp_norm [1:0] $end
$var reg 4 X" result [3:0] $end
$var reg 3 Y" sig_norm [2:0] $end
$var reg 1 Z" sign_out $end
$upscope $end
$scope module adder_real $end
$var wire 4 [" a [3:0] $end
$var wire 1 \" a_larger $end
$var wire 4 ]" b [3:0] $end
$var wire 1 ^" do_sub $end
$var wire 1 _" sign_b_eff $end
$var wire 1 5" sub $end
$var wire 1 `" sign_s $end
$var wire 1 a" sign_l $end
$var wire 1 b" sign_b $end
$var wire 1 c" sign_a $end
$var wire 3 d" sig_s_unaligned [2:0] $end
$var wire 3 e" sig_s [2:0] $end
$var wire 4 f" sig_result_raw [3:0] $end
$var wire 3 g" sig_l [2:0] $end
$var wire 4 h" out [3:0] $end
$var wire 1 i" mant_s $end
$var wire 1 j" mant_out $end
$var wire 1 k" mant_l $end
$var wire 1 l" mant_b $end
$var wire 1 m" mant_a $end
$var wire 1 n" hidden_s $end
$var wire 1 o" hidden_l $end
$var wire 2 p" exp_s [1:0] $end
$var wire 2 q" exp_l [1:0] $end
$var wire 2 r" exp_diff [1:0] $end
$var wire 2 s" exp_b [1:0] $end
$var wire 2 t" exp_a [1:0] $end
$var reg 2 u" exp_norm [1:0] $end
$var reg 4 v" result [3:0] $end
$var reg 3 w" sig_norm [2:0] $end
$var reg 1 x" sign_out $end
$upscope $end
$upscope $end
$scope module complex_mult_inst $end
$var wire 4 y" a [3:0] $end
$var wire 4 z" b [3:0] $end
$var wire 4 {" c [3:0] $end
$var wire 4 |" d [3:0] $end
$var wire 4 }" out_imag [3:0] $end
$var wire 4 ~" out_real [3:0] $end
$var wire 4 !# res_real [3:0] $end
$var wire 4 "# res_imag [3:0] $end
$var wire 4 ## bd [3:0] $end
$var wire 4 $# bc [3:0] $end
$var wire 4 %# ad [3:0] $end
$var wire 4 &# ac [3:0] $end
$scope module a1 $end
$var wire 1 '# a_larger $end
$var wire 1 (# do_sub $end
$var wire 1 )# sign_b_eff $end
$var wire 1 *# sub $end
$var wire 1 +# sign_s $end
$var wire 1 ,# sign_l $end
$var wire 1 -# sign_b $end
$var wire 1 .# sign_a $end
$var wire 3 /# sig_s_unaligned [2:0] $end
$var wire 3 0# sig_s [2:0] $end
$var wire 4 1# sig_result_raw [3:0] $end
$var wire 3 2# sig_l [2:0] $end
$var wire 4 3# out [3:0] $end
$var wire 1 4# mant_s $end
$var wire 1 5# mant_out $end
$var wire 1 6# mant_l $end
$var wire 1 7# mant_b $end
$var wire 1 8# mant_a $end
$var wire 1 9# hidden_s $end
$var wire 1 :# hidden_l $end
$var wire 2 ;# exp_s [1:0] $end
$var wire 2 <# exp_l [1:0] $end
$var wire 2 =# exp_diff [1:0] $end
$var wire 2 ># exp_b [1:0] $end
$var wire 2 ?# exp_a [1:0] $end
$var wire 4 @# b [3:0] $end
$var wire 4 A# a [3:0] $end
$var reg 2 B# exp_norm [1:0] $end
$var reg 4 C# result [3:0] $end
$var reg 3 D# sig_norm [2:0] $end
$var reg 1 E# sign_out $end
$upscope $end
$scope module m1 $end
$var wire 4 F# a [3:0] $end
$var wire 1 G# a_zero $end
$var wire 4 H# b [3:0] $end
$var wire 1 I# b_zero $end
$var wire 1 J# sign_out $end
$var wire 1 K# sign_b $end
$var wire 1 L# sign_a $end
$var wire 3 M# sig_b [2:0] $end
$var wire 3 N# sig_a [2:0] $end
$var wire 5 O# prod_norm [4:0] $end
$var wire 5 P# prod [4:0] $end
$var wire 4 Q# out [3:0] $end
$var wire 1 R# need_norm $end
$var wire 1 S# mant_out $end
$var wire 1 T# mant_b $end
$var wire 1 U# mant_a $end
$var wire 1 V# hidden_b $end
$var wire 1 W# hidden_a $end
$var wire 4 X# exp_temp [3:0] $end
$var wire 3 Y# exp_sum [2:0] $end
$var wire 4 Z# exp_norm [3:0] $end
$var wire 2 [# exp_b [1:0] $end
$var wire 2 \# exp_a [1:0] $end
$var reg 4 ]# output_reg [3:0] $end
$upscope $end
$scope module m2 $end
$var wire 4 ^# a [3:0] $end
$var wire 1 _# a_zero $end
$var wire 4 `# b [3:0] $end
$var wire 1 a# b_zero $end
$var wire 1 b# sign_out $end
$var wire 1 c# sign_b $end
$var wire 1 d# sign_a $end
$var wire 3 e# sig_b [2:0] $end
$var wire 3 f# sig_a [2:0] $end
$var wire 5 g# prod_norm [4:0] $end
$var wire 5 h# prod [4:0] $end
$var wire 4 i# out [3:0] $end
$var wire 1 j# need_norm $end
$var wire 1 k# mant_out $end
$var wire 1 l# mant_b $end
$var wire 1 m# mant_a $end
$var wire 1 n# hidden_b $end
$var wire 1 o# hidden_a $end
$var wire 4 p# exp_temp [3:0] $end
$var wire 3 q# exp_sum [2:0] $end
$var wire 4 r# exp_norm [3:0] $end
$var wire 2 s# exp_b [1:0] $end
$var wire 2 t# exp_a [1:0] $end
$var reg 4 u# output_reg [3:0] $end
$upscope $end
$scope module m3 $end
$var wire 4 v# a [3:0] $end
$var wire 1 w# a_zero $end
$var wire 4 x# b [3:0] $end
$var wire 1 y# b_zero $end
$var wire 1 z# sign_out $end
$var wire 1 {# sign_b $end
$var wire 1 |# sign_a $end
$var wire 3 }# sig_b [2:0] $end
$var wire 3 ~# sig_a [2:0] $end
$var wire 5 !$ prod_norm [4:0] $end
$var wire 5 "$ prod [4:0] $end
$var wire 4 #$ out [3:0] $end
$var wire 1 $$ need_norm $end
$var wire 1 %$ mant_out $end
$var wire 1 &$ mant_b $end
$var wire 1 '$ mant_a $end
$var wire 1 ($ hidden_b $end
$var wire 1 )$ hidden_a $end
$var wire 4 *$ exp_temp [3:0] $end
$var wire 3 +$ exp_sum [2:0] $end
$var wire 4 ,$ exp_norm [3:0] $end
$var wire 2 -$ exp_b [1:0] $end
$var wire 2 .$ exp_a [1:0] $end
$var reg 4 /$ output_reg [3:0] $end
$upscope $end
$scope module m4 $end
$var wire 4 0$ a [3:0] $end
$var wire 1 1$ a_zero $end
$var wire 4 2$ b [3:0] $end
$var wire 1 3$ b_zero $end
$var wire 1 4$ sign_out $end
$var wire 1 5$ sign_b $end
$var wire 1 6$ sign_a $end
$var wire 3 7$ sig_b [2:0] $end
$var wire 3 8$ sig_a [2:0] $end
$var wire 5 9$ prod_norm [4:0] $end
$var wire 5 :$ prod [4:0] $end
$var wire 4 ;$ out [3:0] $end
$var wire 1 <$ need_norm $end
$var wire 1 =$ mant_out $end
$var wire 1 >$ mant_b $end
$var wire 1 ?$ mant_a $end
$var wire 1 @$ hidden_b $end
$var wire 1 A$ hidden_a $end
$var wire 4 B$ exp_temp [3:0] $end
$var wire 3 C$ exp_sum [2:0] $end
$var wire 4 D$ exp_norm [3:0] $end
$var wire 2 E$ exp_b [1:0] $end
$var wire 2 F$ exp_a [1:0] $end
$var reg 4 G$ output_reg [3:0] $end
$upscope $end
$scope module s1 $end
$var wire 4 H$ a [3:0] $end
$var wire 1 I$ a_larger $end
$var wire 4 J$ b [3:0] $end
$var wire 1 K$ do_sub $end
$var wire 1 L$ sign_b_eff $end
$var wire 1 M$ sub $end
$var wire 1 N$ sign_s $end
$var wire 1 O$ sign_l $end
$var wire 1 P$ sign_b $end
$var wire 1 Q$ sign_a $end
$var wire 3 R$ sig_s_unaligned [2:0] $end
$var wire 3 S$ sig_s [2:0] $end
$var wire 4 T$ sig_result_raw [3:0] $end
$var wire 3 U$ sig_l [2:0] $end
$var wire 4 V$ out [3:0] $end
$var wire 1 W$ mant_s $end
$var wire 1 X$ mant_out $end
$var wire 1 Y$ mant_l $end
$var wire 1 Z$ mant_b $end
$var wire 1 [$ mant_a $end
$var wire 1 \$ hidden_s $end
$var wire 1 ]$ hidden_l $end
$var wire 2 ^$ exp_s [1:0] $end
$var wire 2 _$ exp_l [1:0] $end
$var wire 2 `$ exp_diff [1:0] $end
$var wire 2 a$ exp_b [1:0] $end
$var wire 2 b$ exp_a [1:0] $end
$var reg 2 c$ exp_norm [1:0] $end
$var reg 4 d$ result [3:0] $end
$var reg 3 e$ sig_norm [2:0] $end
$var reg 1 f$ sign_out $end
$upscope $end
$upscope $end
$scope module sub_inst $end
$var wire 8 g$ a [7:0] $end
$var wire 8 h$ b [7:0] $end
$var wire 1 i$ sub $end
$var wire 4 j$ out_real [3:0] $end
$var wire 4 k$ out_imag [3:0] $end
$var wire 8 l$ out [7:0] $end
$var wire 4 m$ b_real [3:0] $end
$var wire 4 n$ b_imag [3:0] $end
$var wire 4 o$ a_real [3:0] $end
$var wire 4 p$ a_imag [3:0] $end
$scope module adder_imag $end
$var wire 4 q$ a [3:0] $end
$var wire 1 r$ a_larger $end
$var wire 4 s$ b [3:0] $end
$var wire 1 t$ do_sub $end
$var wire 1 u$ sign_b_eff $end
$var wire 1 i$ sub $end
$var wire 1 v$ sign_s $end
$var wire 1 w$ sign_l $end
$var wire 1 x$ sign_b $end
$var wire 1 y$ sign_a $end
$var wire 3 z$ sig_s_unaligned [2:0] $end
$var wire 3 {$ sig_s [2:0] $end
$var wire 4 |$ sig_result_raw [3:0] $end
$var wire 3 }$ sig_l [2:0] $end
$var wire 4 ~$ out [3:0] $end
$var wire 1 !% mant_s $end
$var wire 1 "% mant_out $end
$var wire 1 #% mant_l $end
$var wire 1 $% mant_b $end
$var wire 1 %% mant_a $end
$var wire 1 &% hidden_s $end
$var wire 1 '% hidden_l $end
$var wire 2 (% exp_s [1:0] $end
$var wire 2 )% exp_l [1:0] $end
$var wire 2 *% exp_diff [1:0] $end
$var wire 2 +% exp_b [1:0] $end
$var wire 2 ,% exp_a [1:0] $end
$var reg 2 -% exp_norm [1:0] $end
$var reg 4 .% result [3:0] $end
$var reg 3 /% sig_norm [2:0] $end
$var reg 1 0% sign_out $end
$upscope $end
$scope module adder_real $end
$var wire 4 1% a [3:0] $end
$var wire 1 2% a_larger $end
$var wire 4 3% b [3:0] $end
$var wire 1 4% do_sub $end
$var wire 1 5% sign_b_eff $end
$var wire 1 i$ sub $end
$var wire 1 6% sign_s $end
$var wire 1 7% sign_l $end
$var wire 1 8% sign_b $end
$var wire 1 9% sign_a $end
$var wire 3 :% sig_s_unaligned [2:0] $end
$var wire 3 ;% sig_s [2:0] $end
$var wire 4 <% sig_result_raw [3:0] $end
$var wire 3 =% sig_l [2:0] $end
$var wire 4 >% out [3:0] $end
$var wire 1 ?% mant_s $end
$var wire 1 @% mant_out $end
$var wire 1 A% mant_l $end
$var wire 1 B% mant_b $end
$var wire 1 C% mant_a $end
$var wire 1 D% hidden_s $end
$var wire 1 E% hidden_l $end
$var wire 2 F% exp_s [1:0] $end
$var wire 2 G% exp_l [1:0] $end
$var wire 2 H% exp_diff [1:0] $end
$var wire 2 I% exp_b [1:0] $end
$var wire 2 J% exp_a [1:0] $end
$var reg 2 K% exp_norm [1:0] $end
$var reg 4 L% result [3:0] $end
$var reg 3 M% sig_norm [2:0] $end
$var reg 1 N% sign_out $end
$upscope $end
$upscope $end
$upscope $end
$upscope $end
$scope module memory_inst $end
$var wire 1 I bank_sel $end
$var wire 1 & clk $end
$var wire 5 O% rd_addr_0 [4:0] $end
$var wire 1 + rst $end
$var wire 5 P% wr_addr_1 [4:0] $end
$var wire 8 Q% wr_data_1 [7:0] $end
$var wire 1 7 wr_en_1 $end
$var wire 8 R% rd_data_0 [7:0] $end
$var reg 8 S% rd_data_reg [7:0] $end
$var integer 32 T% i [31:0] $end
$upscope $end
$upscope $end
$scope task capture_output $end
$var integer 32 U% size [31:0] $end
$upscope $end
$scope task init_test_impulse $end
$upscope $end
$scope task load_input $end
$var integer 32 V% size [31:0] $end
$upscope $end
$scope task reset_sys $end
$upscope $end
$scope task verify_output $end
$var reg 2048 W% test_name [2047:0] $end
$var integer 32 X% k [31:0] $end
$var integer 32 Y% size [31:0] $end
$upscope $end
$upscope $end
$enddefinitions $end
$comment Show the parameter values. $end
$dumpall
b111 ~
b110 }
b100 |
b10 {
b1000 z
b100000 y
b0 x
b1001 w
b11 v
b1 u
b101 t
b101 s
b101 j
b100000 i
b100000 c
b101 b
b100000 Z
b101 Y
b100000 K
b101 J
b100000 $
b101 #
$end
#0
$dumpvars
bx Y%
bx X%
bx W%
bx V%
bx U%
b100000 T%
b0 S%
b0 R%
b0 Q%
b0 P%
b0 O%
0N%
b0 M%
b0 L%
b0 K%
b0 J%
b0 I%
b0 H%
b0 G%
b0 F%
0E%
0D%
0C%
0B%
0A%
0@%
0?%
b0 >%
b0 =%
b0 <%
b0 ;%
b0 :%
09%
08%
07%
16%
15%
14%
b0 3%
12%
b0 1%
00%
b0 /%
b0 .%
b0 -%
b0 ,%
b0 +%
b0 *%
b0 )%
b0 (%
0'%
0&%
0%%
0$%
0#%
0"%
0!%
b0 ~$
b0 }$
b0 |$
b0 {$
b0 z$
0y$
0x$
0w$
1v$
1u$
1t$
b0 s$
1r$
b0 q$
b0 p$
b0 o$
b0 n$
b0 m$
b0 l$
b0 k$
b0 j$
1i$
b0 h$
b0 g$
0f$
b0 e$
b0 d$
b0 c$
b0 b$
b0 a$
b0 `$
b0 _$
b0 ^$
0]$
0\$
0[$
0Z$
0Y$
0X$
0W$
b0 V$
b0 U$
b0 T$
b0 S$
b0 R$
0Q$
0P$
0O$
1N$
1M$
1L$
1K$
b0 J$
1I$
b0 H$
b0 G$
b0 F$
bx E$
bx D$
bx C$
bx B$
0A$
x@$
0?$
x>$
x=$
x<$
b0 ;$
bx :$
bx 9$
b0 8$
b0xx 7$
06$
x5$
x4$
x3$
bx 2$
11$
b0 0$
b0 /$
b0 .$
bx -$
bx ,$
bx +$
bx *$
0)$
x($
0'$
x&$
x%$
x$$
b0 #$
bx "$
bx !$
b0 ~#
b0xx }#
0|#
x{#
xz#
xy#
bx x#
1w#
b0 v#
b0 u#
b0 t#
bx s#
bx r#
bx q#
bx p#
0o#
xn#
0m#
xl#
xk#
xj#
b0 i#
bx h#
bx g#
b0 f#
b0xx e#
0d#
xc#
xb#
xa#
bx `#
1_#
b0 ^#
b0 ]#
b0 \#
bx [#
bx Z#
bx Y#
bx X#
0W#
xV#
0U#
xT#
xS#
xR#
b0 Q#
bx P#
bx O#
b0 N#
b0xx M#
0L#
xK#
xJ#
xI#
bx H#
1G#
b0 F#
0E#
b0 D#
b0 C#
b0 B#
b0 A#
b0 @#
b0 ?#
b0 >#
b0 =#
b0 <#
b0 ;#
0:#
09#
08#
07#
06#
05#
04#
b0 3#
b0 2#
b0 1#
b0 0#
b0 /#
0.#
0-#
0,#
0+#
0*#
0)#
0(#
1'#
b0 &#
b0 %#
b0 $#
b0 ##
b0 "#
b0 !#
b0 ~"
b0 }"
bx |"
bx {"
b0 z"
b0 y"
0x"
b0 w"
b0 v"
b0 u"
b0 t"
b0 s"
b0 r"
b0 q"
b0 p"
0o"
0n"
0m"
0l"
0k"
0j"
0i"
b0 h"
b0 g"
b0 f"
b0 e"
b0 d"
0c"
0b"
0a"
0`"
0_"
0^"
b0 ]"
1\"
b0 ["
0Z"
b0 Y"
b0 X"
b0 W"
b0 V"
b0 U"
b0 T"
b0 S"
b0 R"
0Q"
0P"
0O"
0N"
0M"
0L"
0K"
b0 J"
b0 I"
b0 H"
b0 G"
b0 F"
0E"
0D"
0C"
0B"
0A"
0@"
b0 ?"
1>"
b0 ="
b0 <"
b0 ;"
b0 :"
b0 9"
b0 8"
b0 7"
b0 6"
05"
b0 4"
b0 3"
b0 2"
b0 1"
b0 0"
bx /"
b0 ."
b0 -"
b0 ,"
b0 +"
b0 *"
b0 )"
b0 ("
b0 '"
b0 &"
b0 %"
b0 $"
b0 #"
b0 ""
0!"
b0 r
b0 q
b0 p
bx o
b1 n
b0 m
b101 l
b0 k
b0 h
xg
bx f
bx e
bx d
bx a
bx `
bx _
b1 ^
b0 ]
b0 \
b0 [
b0 X
b10 W
b0 V
b1 U
bx T
bx S
bx R
bx Q
bx P
1O
0N
0M
0L
1I
b0 H
b0 G
b0 F
b0 E
0D
b0 C
0B
0A
b0 @
b0 ?
b0 >
b0 =
b1 <
bx ;
b0 :
09
bx 8
07
b0 6
b0 5
b0 4
b0 3
bx 2
b0 1
b0 0
bx /
bx .
bx -
0,
0+
0*
b0 )
b0 (
b0 '
0&
bx %
0"
b0 !
$end
#5000
b100000 T%
1&
#10000
1+
0&
#15000
1&
#20000
0S#
0=$
0k#
0%$
0J#
0I#
b0 Z#
b0 O#
04$
03$
b0 D$
b0 9$
0b#
1a#
b1111 r#
b0 g#
0z#
1y#
b1111 ,$
b0 !$
0K#
b0 X#
b1 Y#
0R#
b0 P#
1V#
b1 [#
b10 M#
0T#
05$
b0 B$
b1 C$
0<$
b0 :$
1@$
b1 E$
b10 7$
0>$
0c#
b1111 p#
b0 q#
0j#
b0 h#
0n#
b0 s#
b0 e#
0l#
0{#
b1111 *$
b0 +$
0$$
b0 "$
0($
b0 -$
b0 }#
0&$
b10 {"
b10 H#
b10 2$
b0 |"
b0 `#
b0 x#
b100000 8
b100000 R
b100000 f
b100000 o
b100000 /"
b0 e
0g
b0 d
17
b0 ;
b0 Q
b0 T
b0 `
b10000 S
b101 _
b0 -
1*
b100000 V%
b100000 .
b100000 %
b100000 2
b100000 P
b100000 a
0&
#25000
1N
1&
#30000
b100000 >
b100000 Q%
b100000 )
b100000 6
0&
#35000
1&
#40000
b1 -
0&
#45000
1&
#50000
b10000 ?
b10000 P%
b0 >
b0 Q%
b10000 H
b10000 k
b101 l
b0 )
b0 6
b1 (
b1 5
b1 h
0&
#55000
1&
#60000
b10 -
0&
#65000
1&
#70000
b1000 ?
b1000 P%
b1000 H
b1000 k
b101 l
b10 (
b10 5
b10 h
0&
#75000
1&
#80000
b11 -
0&
#85000
1&
#90000
b11000 ?
b11000 P%
b11000 H
b11000 k
b101 l
b11 (
b11 5
b11 h
0&
#95000
1&
#100000
b100 -
0&
#105000
1&
#110000
b100 ?
b100 P%
b100 H
b100 k
b101 l
b100 (
b100 5
b100 h
0&
#115000
1&
#120000
b101 -
0&
#125000
1&
#130000
b10100 ?
b10100 P%
b10100 H
b10100 k
b101 l
b101 (
b101 5
b101 h
0&
#135000
1&
#140000
b110 -
0&
#145000
1&
#150000
b1100 ?
b1100 P%
b1100 H
b1100 k
b101 l
b110 (
b110 5
b110 h
0&
#155000
1&
#160000
b111 -
0&
#165000
1&
#170000
b11100 ?
b11100 P%
b11100 H
b11100 k
b101 l
b111 (
b111 5
b111 h
0&
#175000
1&
#180000
b1000 -
0&
#185000
1&
#190000
b10 ?
b10 P%
b10 H
b10 k
b101 l
b1000 (
b1000 5
b1000 h
0&
#195000
1&
#200000
b1001 -
0&
#205000
1&
#210000
b10010 ?
b10010 P%
b10010 H
b10010 k
b101 l
b1001 (
b1001 5
b1001 h
0&
#215000
1&
#220000
b1010 -
0&
#225000
1&
#230000
b1010 ?
b1010 P%
b1010 H
b1010 k
b101 l
b1010 (
b1010 5
b1010 h
0&
#235000
1&
#240000
b1011 -
0&
#245000
1&
#250000
b11010 ?
b11010 P%
b11010 H
b11010 k
b101 l
b1011 (
b1011 5
b1011 h
0&
#255000
1&
#260000
b1100 -
0&
#265000
1&
#270000
b110 ?
b110 P%
b110 H
b110 k
b101 l
b1100 (
b1100 5
b1100 h
0&
#275000
1&
#280000
b1101 -
0&
#285000
1&
#290000
b10110 ?
b10110 P%
b10110 H
b10110 k
b101 l
b1101 (
b1101 5
b1101 h
0&
#295000
1&
#300000
b1110 -
0&
#305000
1&
#310000
b1110 ?
b1110 P%
b1110 H
b1110 k
b101 l
b1110 (
b1110 5
b1110 h
0&
#315000
1&
#320000
b1111 -
0&
#325000
1&
#330000
b11110 ?
b11110 P%
b11110 H
b11110 k
b101 l
b1111 (
b1111 5
b1111 h
0&
#335000
1&
#340000
b10000 -
0&
#345000
1&
#350000
b1 ?
b1 P%
b1 H
b1 k
b101 l
b10000 (
b10000 5
b10000 h
0&
#355000
1&
#360000
b10001 -
0&
#365000
1&
#370000
b10001 ?
b10001 P%
b10001 H
b10001 k
b101 l
b10001 (
b10001 5
b10001 h
0&
#375000
1&
#380000
b10010 -
0&
#385000
1&
#390000
b1001 ?
b1001 P%
b1001 H
b1001 k
b101 l
b10010 (
b10010 5
b10010 h
0&
#395000
1&
#400000
b10011 -
0&
#405000
1&
#410000
b11001 ?
b11001 P%
b11001 H
b11001 k
b101 l
b10011 (
b10011 5
b10011 h
0&
#415000
1&
#420000
b10100 -
0&
#425000
1&
#430000
b101 ?
b101 P%
b101 H
b101 k
b101 l
b10100 (
b10100 5
b10100 h
0&
#435000
1&
#440000
b10101 -
0&
#445000
1&
#450000
b10101 ?
b10101 P%
b10101 H
b10101 k
b101 l
b10101 (
b10101 5
b10101 h
0&
#455000
1&
#460000
b10110 -
0&
#465000
1&
#470000
b1101 ?
b1101 P%
b1101 H
b1101 k
b101 l
b10110 (
b10110 5
b10110 h
0&
#475000
1&
#480000
b10111 -
0&
#485000
1&
#490000
b11101 ?
b11101 P%
b11101 H
b11101 k
b101 l
b10111 (
b10111 5
b10111 h
0&
#495000
1&
#500000
b11000 -
0&
#505000
1&
#510000
b11 ?
b11 P%
b11 H
b11 k
b101 l
b11000 (
b11000 5
b11000 h
0&
#515000
1&
#520000
b11001 -
0&
#525000
1&
#530000
b10011 ?
b10011 P%
b10011 H
b10011 k
b101 l
b11001 (
b11001 5
b11001 h
0&
#535000
1&
#540000
b11010 -
0&
#545000
1&
#550000
b1011 ?
b1011 P%
b1011 H
b1011 k
b101 l
b11010 (
b11010 5
b11010 h
0&
#555000
1&
#560000
b11011 -
0&
#565000
1&
#570000
b11011 ?
b11011 P%
b11011 H
b11011 k
b101 l
b11011 (
b11011 5
b11011 h
0&
#575000
1&
#580000
b11100 -
0&
#585000
1&
#590000
b111 ?
b111 P%
b111 H
b111 k
b101 l
b11100 (
b11100 5
b11100 h
0&
#595000
1&
#600000
b11101 -
0&
#605000
1&
#610000
b10111 ?
b10111 P%
b10111 H
b10111 k
b101 l
b11101 (
b11101 5
b11101 h
0&
#615000
1&
#620000
b11110 -
0&
#625000
1&
#630000
b1111 ?
b1111 P%
b1111 H
b1111 k
b101 l
b11110 (
b11110 5
b11110 h
0&
#635000
1&
#640000
b11111 -
0&
#645000
1&
#650000
b11111 ?
b11111 P%
b11111 H
b11111 k
b101 l
b11111 (
b11111 5
b11111 h
0&
#655000
1&
#660000
b1 '"
07
b0 ?
b0 P%
1,
0*
b100000 -
0&
#665000
0I
b10 '"
0N
0O
1M
b1 *"
1&
#670000
b10 '"
0,
0&
#675000
b11 '"
b10 *"
b100000 !
b100000 4
b100000 :
b100000 r
b100000 R%
b100000 S%
1&
#680000
0&
#685000
b100000 q
b100000 2"
b100000 8"
b10 6"
b10 h"
b10 v"
b100000 p
b100000 1"
b100000 l$
b10 j$
b10 >%
b10 L%
b1 u"
b10 w"
b1 K%
b10 M%
b10 f"
b10 <%
b1 r"
b10 g"
1o"
b1 q"
b1 H%
b10 =%
1E%
b1 G%
b1 t"
b1 J%
b1 @
b1 O%
b10 ;"
b10 ["
b10 o$
b10 1%
b100 '"
b1 G
b1 $"
b100000 +"
b100000 -"
b100000 3"
b100000 g$
b11 *"
1&
#690000
0&
