FP4_E2M1/src/fft_clean.vcd
$date
	Tue Jan 06 00:06:36 2026
$end
$version
	Icarus Verilog
$end
$timescale
	1ps
$end
$scope module tb_fft_clean $end
$var wire 8 ! ext_rd_data [7:0] $end
$var wire 1 " done $end
$var parameter 32 # ADDR_WIDTH $end
$var parameter 32 $ MAX_N $end
$var reg 6 % N_config [5:0] $end
$var reg 1 & clk $end
$var reg 5 ' ext_rd_addr [4:0] $end
$var reg 5 ( ext_wr_addr [4:0] $end
$var reg 8 ) ext_wr_data [7:0] $end
$var reg 1 * ext_wr_en $end
$var reg 1 + rst $end
$var reg 1 , start $end
$var integer 32 - i [31:0] $end
$scope module dut $end
$var wire 6 . N_config [5:0] $end
$var wire 1 & clk $end
$var wire 5 / ext_rd_addr [4:0] $end
$var wire 8 0 ext_rd_data [7:0] $end
$var wire 5 1 ext_wr_addr [4:0] $end
$var wire 8 2 ext_wr_data [7:0] $end
$var wire 1 * ext_wr_en $end
$var wire 1 3 final_wr_en $end
$var wire 1 + rst $end
$var wire 1 , start $end
$var wire 8 4 twiddle_bus [7:0] $end
$var wire 1 5 next_step $end
$var wire 8 6 mem_out_bus [7:0] $end
$var wire 5 7 k_idx [4:0] $end
$var wire 5 8 idx_b [4:0] $end
$var wire 5 9 idx_a [4:0] $end
$var wire 8 : final_wr_data [7:0] $end
$var wire 5 ; final_wr_addr [4:0] $end
$var wire 5 < final_rd_addr [4:0] $end
$var wire 1 = done_stage $end
$var wire 1 > done_fft_agu $end
$var wire 1 " done $end
$var wire 3 ? curr_stage [2:0] $end
$var wire 1 @ core_wr_en $end
$var wire 8 A core_wr_data [7:0] $end
$var wire 5 B core_wr_addr [4:0] $end
$var wire 5 C core_rd_addr [4:0] $end
$var wire 5 D bit_rev_addr [4:0] $end
$var wire 1 E actual_bank_sel_for_mem $end
$var parameter 32 F ADDR_WIDTH $end
$var parameter 32 G MAX_N $end
$var reg 1 H bank_sel $end
$var reg 1 I is_processing $end
$var reg 1 J load_done $end
$var reg 1 K loading_phase $end
$scope module agu_inst $end
$var wire 6 L N [5:0] $end
$var wire 1 & clk $end
$var wire 5 M k [4:0] $end
$var wire 1 + reset $end
$var wire 8 N twiddle_output [7:0] $end
$var wire 5 O num_groups [4:0] $end
$var wire 1 5 next_step $end
$var wire 5 P k_idx [4:0] $end
$var wire 5 Q idx_b [4:0] $end
$var wire 5 R idx_a [4:0] $end
$var wire 6 S group_size [5:0] $end
$var wire 5 T group_offset [4:0] $end
$var parameter 32 U ADDR_WIDTH $end
$var parameter 32 V MAX_N $end
$var reg 5 W butterfly [4:0] $end
$var reg 3 X curr_stage [2:0] $end
$var reg 1 > done_fft $end
$var reg 1 = done_stage $end
$var reg 5 Y group [4:0] $end
$var reg 5 Z stride [4:0] $end
$var reg 3 [ total_stages [2:0] $end
$scope module tw_rom $end
$var wire 5 \ k [4:0] $end
$var wire 6 ] n [5:0] $end
$var parameter 32 ^ ADDR_WIDTH $end
$var parameter 32 _ MAX_N $end
$var reg 5 ` scaled_k [4:0] $end
$var reg 5 a table_index [4:0] $end
$var reg 8 b twiddle_out [7:0] $end
$var reg 1 c use_conjugate $end
$upscope $end
$upscope $end
$scope module bit_reverse_inst $end
$var wire 5 d in [4:0] $end
$var parameter 32 e MAX_N $end
$var parameter 32 f WIDTH $end
$var reg 5 g out [4:0] $end
$var integer 32 h i [31:0] $end
$upscope $end
$scope module fft_core_inst $end
$var wire 1 & clk $end
$var wire 1 > done_fft_agu $end
$var wire 5 i idx_a [4:0] $end
$var wire 5 j idx_b [4:0] $end
$var wire 1 + rst $end
$var wire 1 , start $end
$var wire 8 k twiddle_in [7:0] $end
$var wire 8 l outY [7:0] $end
$var wire 8 m outX [7:0] $end
$var wire 8 n int_rd_data [7:0] $end
$var parameter 32 o ADDR_WIDTH $end
$var parameter 4 p COMPUTE $end
$var parameter 4 q FETCH_A $end
$var parameter 4 r FETCH_B $end
$var parameter 4 s FINISH $end
$var parameter 4 t IDLE $end
$var parameter 32 u MAX_N $end
$var parameter 4 v UPDATE_AGU $end
$var parameter 4 w WAIT_A $end
$var parameter 4 x WAIT_B $end
$var parameter 4 y WRITE_X $end
$var parameter 4 z WRITE_Y $end
$var reg 1 { butterfly_valid $end
$var reg 1 " done_fft $end
$var reg 5 | idx_a_reg [4:0] $end
$var reg 5 } idx_b_reg [4:0] $end
$var reg 5 ~ int_rd_addr [4:0] $end
$var reg 5 !" int_wr_addr [4:0] $end
$var reg 8 "" int_wr_data [7:0] $end
$var reg 1 @ int_wr_en $end
$var reg 4 #" next_state [3:0] $end
$var reg 1 5 next_step $end
$var reg 8 $" outX_reg [7:0] $end
$var reg 8 %" outY_reg [7:0] $end
$var reg 4 &" present_state [3:0] $end
$var reg 8 '" regA [7:0] $end
$var reg 8 (" regB [7:0] $end
$scope module butterfly_inst $end
$var wire 8 )" A [7:0] $end
$var wire 8 *" B [7:0] $end
$var wire 8 +" W [7:0] $end
$var wire 8 ," wb_product [7:0] $end
$var wire 8 -" Y [7:0] $end
$var wire 8 ." X [7:0] $end
$scope module add_inst $end
$var wire 8 /" a [7:0] $end
$var wire 8 0" b [7:0] $end
$var wire 1 1" sub $end
$var wire 4 2" out_real [3:0] $end
$var wire 4 3" out_imag [3:0] $end
$var wire 8 4" out [7:0] $end
$var wire 4 5" b_real [3:0] $end
$var wire 4 6" b_imag [3:0] $end
$var wire 4 7" a_real [3:0] $end
$var wire 4 8" a_imag [3:0] $end
$scope module adder_imag $end
$var wire 4 9" a [3:0] $end
$var wire 1 :" a_larger $end
$var wire 4 ;" b [3:0] $end
$var wire 1 <" do_sub $end
$var wire 1 =" sign_b_eff $end
$var wire 1 1" sub $end
$var wire 1 >" sign_s $end
$var wire 1 ?" sign_l $end
$var wire 1 @" sign_b $end
$var wire 1 A" sign_a $end
$var wire 3 B" sig_s_unaligned [2:0] $end
$var wire 3 C" sig_s [2:0] $end
$var wire 4 D" sig_result_raw [3:0] $end
$var wire 3 E" sig_l [2:0] $end
$var wire 4 F" out [3:0] $end
$var wire 1 G" mant_s $end
$var wire 1 H" mant_out $end
$var wire 1 I" mant_l $end
$var wire 1 J" mant_b $end
$var wire 1 K" mant_a $end
$var wire 1 L" hidden_s $end
$var wire 1 M" hidden_l $end
$var wire 2 N" exp_s [1:0] $end
$var wire 2 O" exp_l [1:0] $end
$var wire 2 P" exp_diff [1:0] $end
$var wire 2 Q" exp_b [1:0] $end
$var wire 2 R" exp_a [1:0] $end
$var reg 2 S" exp_norm [1:0] $end
$var reg 4 T" result [3:0] $end
$var reg 3 U" sig_norm [2:0] $end
$var reg 1 V" sign_out $end
$upscope $end
$scope module adder_real $end
$var wire 4 W" a [3:0] $end
$var wire 1 X" a_larger $end
$var wire 4 Y" b [3:0] $end
$var wire 1 Z" do_sub $end
$var wire 1 [" sign_b_eff $end
$var wire 1 1" sub $end
$var wire 1 \" sign_s $end
$var wire 1 ]" sign_l $end
$var wire 1 ^" sign_b $end
$var wire 1 _" sign_a $end
$var wire 3 `" sig_s_unaligned [2:0] $end
$var wire 3 a" sig_s [2:0] $end
$var wire 4 b" sig_result_raw [3:0] $end
$var wire 3 c" sig_l [2:0] $end
$var wire 4 d" out [3:0] $end
$var wire 1 e" mant_s $end
$var wire 1 f" mant_out $end
$var wire 1 g" mant_l $end
$var wire 1 h" mant_b $end
$var wire 1 i" mant_a $end
$var wire 1 j" hidden_s $end
$var wire 1 k" hidden_l $end
$var wire 2 l" exp_s [1:0] $end
$var wire 2 m" exp_l [1:0] $end
$var wire 2 n" exp_diff [1:0] $end
$var wire 2 o" exp_b [1:0] $end
$var wire 2 p" exp_a [1:0] $end
$var reg 2 q" exp_norm [1:0] $end
$var reg 4 r" result [3:0] $end
$var reg 3 s" sig_norm [2:0] $end
$var reg 1 t" sign_out $end
$upscope $end
$upscope $end
$scope module complex_mult_inst $end
$var wire 4 u" a [3:0] $end
$var wire 4 v" b [3:0] $end
$var wire 4 w" c [3:0] $end
$var wire 4 x" d [3:0] $end
$var wire 4 y" out_imag [3:0] $end
$var wire 4 z" out_real [3:0] $end
$var wire 4 {" res_real [3:0] $end
$var wire 4 |" res_imag [3:0] $end
$var wire 4 }" bd [3:0] $end
$var wire 4 ~" bc [3:0] $end
$var wire 4 !# ad [3:0] $end
$var wire 4 "# ac [3:0] $end
$scope module a1 $end
$var wire 1 ## a_larger $end
$var wire 1 $# do_sub $end
$var wire 1 %# sign_b_eff $end
$var wire 1 &# sub $end
$var wire 1 '# sign_s $end
$var wire 1 (# sign_l $end
$var wire 1 )# sign_b $end
$var wire 1 *# sign_a $end
$var wire 3 +# sig_s_unaligned [2:0] $end
$var wire 3 ,# sig_s [2:0] $end
$var wire 4 -# sig_result_raw [3:0] $end
$var wire 3 .# sig_l [2:0] $end
$var wire 4 /# out [3:0] $end
$var wire 1 0# mant_s $end
$var wire 1 1# mant_out $end
$var wire 1 2# mant_l $end
$var wire 1 3# mant_b $end
$var wire 1 4# mant_a $end
$var wire 1 5# hidden_s $end
$var wire 1 6# hidden_l $end
$var wire 2 7# exp_s [1:0] $end
$var wire 2 8# exp_l [1:0] $end
$var wire 2 9# exp_diff [1:0] $end
$var wire 2 :# exp_b [1:0] $end
$var wire 2 ;# exp_a [1:0] $end
$var wire 4 <# b [3:0] $end
$var wire 4 =# a [3:0] $end
$var reg 2 ># exp_norm [1:0] $end
$var reg 4 ?# result [3:0] $end
$var reg 3 @# sig_norm [2:0] $end
$var reg 1 A# sign_out $end
$upscope $end
$scope module m1 $end
$var wire 4 B# a [3:0] $end
$var wire 1 C# a_zero $end
$var wire 4 D# b [3:0] $end
$var wire 1 E# b_zero $end
$var wire 1 F# sign_out $end
$var wire 1 G# sign_b $end
$var wire 1 H# sign_a $end
$var wire 3 I# sig_b [2:0] $end
$var wire 3 J# sig_a [2:0] $end
$var wire 5 K# prod_norm [4:0] $end
$var wire 5 L# prod [4:0] $end
$var wire 4 M# out [3:0] $end
$var wire 1 N# need_norm $end
$var wire 1 O# mant_out $end
$var wire 1 P# mant_b $end
$var wire 1 Q# mant_a $end
$var wire 1 R# hidden_b $end
$var wire 1 S# hidden_a $end
$var wire 4 T# exp_temp [3:0] $end
$var wire 3 U# exp_sum [2:0] $end
$var wire 4 V# exp_norm [3:0] $end
$var wire 2 W# exp_b [1:0] $end
$var wire 2 X# exp_a [1:0] $end
$var reg 4 Y# output_reg [3:0] $end
$upscope $end
$scope module m2 $end
$var wire 4 Z# a [3:0] $end
$var wire 1 [# a_zero $end
$var wire 4 \# b [3:0] $end
$var wire 1 ]# b_zero $end
$var wire 1 ^# sign_out $end
$var wire 1 _# sign_b $end
$var wire 1 `# sign_a $end
$var wire 3 a# sig_b [2:0] $end
$var wire 3 b# sig_a [2:0] $end
$var wire 5 c# prod_norm [4:0] $end
$var wire 5 d# prod [4:0] $end
$var wire 4 e# out [3:0] $end
$var wire 1 f# need_norm $end
$var wire 1 g# mant_out $end
$var wire 1 h# mant_b $end
$var wire 1 i# mant_a $end
$var wire 1 j# hidden_b $end
$var wire 1 k# hidden_a $end
$var wire 4 l# exp_temp [3:0] $end
$var wire 3 m# exp_sum [2:0] $end
$var wire 4 n# exp_norm [3:0] $end
$var wire 2 o# exp_b [1:0] $end
$var wire 2 p# exp_a [1:0] $end
$var reg 4 q# output_reg [3:0] $end
$upscope $end
$scope module m3 $end
$var wire 4 r# a [3:0] $end
$var wire 1 s# a_zero $end
$var wire 4 t# b [3:0] $end
$var wire 1 u# b_zero $end
$var wire 1 v# sign_out $end
$var wire 1 w# sign_b $end
$var wire 1 x# sign_a $end
$var wire 3 y# sig_b [2:0] $end
$var wire 3 z# sig_a [2:0] $end
$var wire 5 {# prod_norm [4:0] $end
$var wire 5 |# prod [4:0] $end
$var wire 4 }# out [3:0] $end
$var wire 1 ~# need_norm $end
$var wire 1 !$ mant_out $end
$var wire 1 "$ mant_b $end
$var wire 1 #$ mant_a $end
$var wire 1 $$ hidden_b $end
$var wire 1 %$ hidden_a $end
$var wire 4 &$ exp_temp [3:0] $end
$var wire 3 '$ exp_sum [2:0] $end
$var wire 4 ($ exp_norm [3:0] $end
$var wire 2 )$ exp_b [1:0] $end
$var wire 2 *$ exp_a [1:0] $end
$var reg 4 +$ output_reg [3:0] $end
$upscope $end
$scope module m4 $end
$var wire 4 ,$ a [3:0] $end
$var wire 1 -$ a_zero $end
$var wire 4 .$ b [3:0] $end
$var wire 1 /$ b_zero $end
$var wire 1 0$ sign_out $end
$var wire 1 1$ sign_b $end
$var wire 1 2$ sign_a $end
$var wire 3 3$ sig_b [2:0] $end
$var wire 3 4$ sig_a [2:0] $end
$var wire 5 5$ prod_norm [4:0] $end
$var wire 5 6$ prod [4:0] $end
$var wire 4 7$ out [3:0] $end
$var wire 1 8$ need_norm $end
$var wire 1 9$ mant_out $end
$var wire 1 :$ mant_b $end
$var wire 1 ;$ mant_a $end
$var wire 1 <$ hidden_b $end
$var wire 1 =$ hidden_a $end
$var wire 4 >$ exp_temp [3:0] $end
$var wire 3 ?$ exp_sum [2:0] $end
$var wire 4 @$ exp_norm [3:0] $end
$var wire 2 A$ exp_b [1:0] $end
$var wire 2 B$ exp_a [1:0] $end
$var reg 4 C$ output_reg [3:0] $end
$upscope $end
$scope module s1 $end
$var wire 4 D$ a [3:0] $end
$var wire 1 E$ a_larger $end
$var wire 4 F$ b [3:0] $end
$var wire 1 G$ do_sub $end
$var wire 1 H$ sign_b_eff $end
$var wire 1 I$ sub $end
$var wire 1 J$ sign_s $end
$var wire 1 K$ sign_l $end
$var wire 1 L$ sign_b $end
$var wire 1 M$ sign_a $end
$var wire 3 N$ sig_s_unaligned [2:0] $end
$var wire 3 O$ sig_s [2:0] $end
$var wire 4 P$ sig_result_raw [3:0] $end
$var wire 3 Q$ sig_l [2:0] $end
$var wire 4 R$ out [3:0] $end
$var wire 1 S$ mant_s $end
$var wire 1 T$ mant_out $end
$var wire 1 U$ mant_l $end
$var wire 1 V$ mant_b $end
$var wire 1 W$ mant_a $end
$var wire 1 X$ hidden_s $end
$var wire 1 Y$ hidden_l $end
$var wire 2 Z$ exp_s [1:0] $end
$var wire 2 [$ exp_l [1:0] $end
$var wire 2 \$ exp_diff [1:0] $end
$var wire 2 ]$ exp_b [1:0] $end
$var wire 2 ^$ exp_a [1:0] $end
$var reg 2 _$ exp_norm [1:0] $end
$var reg 4 `$ result [3:0] $end
$var reg 3 a$ sig_norm [2:0] $end
$var reg 1 b$ sign_out $end
$upscope $end
$upscope $end
$scope module sub_inst $end
$var wire 8 c$ a [7:0] $end
$var wire 8 d$ b [7:0] $end
$var wire 1 e$ sub $end
$var wire 4 f$ out_real [3:0] $end
$var wire 4 g$ out_imag [3:0] $end
$var wire 8 h$ out [7:0] $end
$var wire 4 i$ b_real [3:0] $end
$var wire 4 j$ b_imag [3:0] $end
$var wire 4 k$ a_real [3:0] $end
$var wire 4 l$ a_imag [3:0] $end
$scope module adder_imag $end
$var wire 4 m$ a [3:0] $end
$var wire 1 n$ a_larger $end
$var wire 4 o$ b [3:0] $end
$var wire 1 p$ do_sub $end
$var wire 1 q$ sign_b_eff $end
$var wire 1 e$ sub $end
$var wire 1 r$ sign_s $end
$var wire 1 s$ sign_l $end
$var wire 1 t$ sign_b $end
$var wire 1 u$ sign_a $end
$var wire 3 v$ sig_s_unaligned [2:0] $end
$var wire 3 w$ sig_s [2:0] $end
$var wire 4 x$ sig_result_raw [3:0] $end
$var wire 3 y$ sig_l [2:0] $end
$var wire 4 z$ out [3:0] $end
$var wire 1 {$ mant_s $end
$var wire 1 |$ mant_out $end
$var wire 1 }$ mant_l $end
$var wire 1 ~$ mant_b $end
$var wire 1 !% mant_a $end
$var wire 1 "% hidden_s $end
$var wire 1 #% hidden_l $end
$var wire 2 $% exp_s [1:0] $end
$var wire 2 %% exp_l [1:0] $end
$var wire 2 &% exp_diff [1:0] $end
$var wire 2 '% exp_b [1:0] $end
$var wire 2 (% exp_a [1:0] $end
$var reg 2 )% exp_norm [1:0] $end
$var reg 4 *% result [3:0] $end
$var reg 3 +% sig_norm [2:0] $end
$var reg 1 ,% sign_out $end
$upscope $end
$scope module adder_real $end
$var wire 4 -% a [3:0] $end
$var wire 1 .% a_larger $end
$var wire 4 /% b [3:0] $end
$var wire 1 0% do_sub $end
$var wire 1 1% sign_b_eff $end
$var wire 1 e$ sub $end
$var wire 1 2% sign_s $end
$var wire 1 3% sign_l $end
$var wire 1 4% sign_b $end
$var wire 1 5% sign_a $end
$var wire 3 6% sig_s_unaligned [2:0] $end
$var wire 3 7% sig_s [2:0] $end
$var wire 4 8% sig_result_raw [3:0] $end
$var wire 3 9% sig_l [2:0] $end
$var wire 4 :% out [3:0] $end
$var wire 1 ;% mant_s $end
$var wire 1 <% mant_out $end
$var wire 1 =% mant_l $end
$var wire 1 >% mant_b $end
$var wire 1 ?% mant_a $end
$var wire 1 @% hidden_s $end
$var wire 1 A% hidden_l $end
$var wire 2 B% exp_s [1:0] $end
$var wire 2 C% exp_l [1:0] $end
$var wire 2 D% exp_diff [1:0] $end
$var wire 2 E% exp_b [1:0] $end
$var wire 2 F% exp_a [1:0] $end
$var reg 2 G% exp_norm [1:0] $end
$var reg 4 H% result [3:0] $end
$var reg 3 I% sig_norm [2:0] $end
$var reg 1 J% sign_out $end
$upscope $end
$upscope $end
$upscope $end
$upscope $end
$scope module memory_inst $end
$var wire 1 E bank_sel $end
$var wire 1 & clk $end
$var wire 5 K% rd_addr_0 [4:0] $end
$var wire 1 + rst $end
$var wire 5 L% wr_addr_1 [4:0] $end
$var wire 8 M% wr_data_1 [7:0] $end
$var wire 1 3 wr_en_1 $end
$var wire 8 N% rd_data_0 [7:0] $end
$var reg 8 O% rd_data_reg [7:0] $end
$var integer 32 P% i [31:0] $end
$upscope $end
$upscope $end
$scope task load_sine $end
$upscope $end
$scope task read_output $end
$upscope $end
$scope task reset_dut $end
$upscope $end
$upscope $end
$enddefinitions $end
$comment Show the parameter values. $end
$dumpall
b111 z
b110 y
b100 x
b10 w
b1000 v
b100000 u
b0 t
b1001 s
b11 r
b1 q
b101 p
b101 o
b101 f
b100000 e
b100000 _
b101 ^
b100000 V
b101 U
b100000 G
b101 F
b100000 $
b101 #
$end
#0
$dumpvars
b100000 P%
b0 O%
b0 N%
b0 M%
b0 L%
bx K%
0J%
b0 I%
b0 H%
b0 G%
b0 F%
b0 E%
b0 D%
b0 C%
b0 B%
0A%
0@%
0?%
0>%
0=%
0<%
0;%
b0 :%
b0 9%
b0 8%
b0 7%
b0 6%
05%
04%
03%
12%
11%
10%
b0 /%
1.%
b0 -%
0,%
b0 +%
b0 *%
b0 )%
b0 (%
b0 '%
b0 &%
b0 %%
b0 $%
0#%
0"%
0!%
0~$
0}$
0|$
0{$
b0 z$
b0 y$
b0 x$
b0 w$
b0 v$
0u$
0t$
0s$
1r$
1q$
1p$
b0 o$
1n$
b0 m$
b0 l$
b0 k$
b0 j$
b0 i$
b0 h$
b0 g$
b0 f$
1e$
b0 d$
b0 c$
0b$
b0 a$
b0 `$
b0 _$
b0 ^$
b0 ]$
b0 \$
b0 [$
b0 Z$
0Y$
0X$
0W$
0V$
0U$
0T$
0S$
b0 R$
b0 Q$
b0 P$
b0 O$
b0 N$
0M$
0L$
0K$
1J$
1I$
1H$
1G$
b0 F$
1E$
b0 D$
b0 C$
b0 B$
b1 A$
b0 @$
b1 ?$
b0 >$
0=$
1<$
0;$
0:$
09$
08$
b0 7$
b0 6$
b0 5$
b0 4$
b10 3$
02$
01$
00$
0/$
b10 .$
1-$
b0 ,$
b0 +$
b0 *$
b0 )$
b1111 ($
b0 '$
b1111 &$
0%$
0$$
0#$
0"$
0!$
0~#
b0 }#
b0 |#
b0 {#
b0 z#
b0 y#
0x#
0w#
0v#
1u#
b0 t#
1s#
b0 r#
b0 q#
b0 p#
b0 o#
b1111 n#
b0 m#
b1111 l#
0k#
0j#
0i#
0h#
0g#
0f#
b0 e#
b0 d#
b0 c#
b0 b#
b0 a#
0`#
0_#
0^#
1]#
b0 \#
1[#
b0 Z#
b0 Y#
b0 X#
b1 W#
b0 V#
b1 U#
b0 T#
0S#
1R#
0Q#
0P#
0O#
0N#
b0 M#
b0 L#
b0 K#
b0 J#
b10 I#
0H#
0G#
0F#
0E#
b10 D#
1C#
b0 B#
0A#
b0 @#
b0 ?#
b0 >#
b0 =#
b0 <#
b0 ;#
b0 :#
b0 9#
b0 8#
b0 7#
06#
05#
04#
03#
02#
01#
00#
b0 /#
b0 .#
b0 -#
b0 ,#
b0 +#
0*#
0)#
0(#
0'#
0&#
0%#
0$#
1##
b0 "#
b0 !#
b0 ~"
b0 }"
b0 |"
b0 {"
b0 z"
b0 y"
b0 x"
b10 w"
b0 v"
b0 u"
0t"
b0 s"
b0 r"
b0 q"
b0 p"
b0 o"
b0 n"
b0 m"
b0 l"
0k"
0j"
0i"
0h"
0g"
0f"
0e"
b0 d"
b0 c"
b0 b"
b0 a"
b0 `"
0_"
0^"
0]"
0\"
0["
0Z"
b0 Y"
1X"
b0 W"
0V"
b0 U"
b0 T"
b0 S"
b0 R"
b0 Q"
b0 P"
b0 O"
b0 N"
0M"
0L"
0K"
0J"
0I"
0H"
0G"
b0 F"
b0 E"
b0 D"
b0 C"
b0 B"
0A"
0@"
0?"
0>"
0="
0<"
b0 ;"
1:"
b0 9"
b0 8"
b0 7"
b0 6"
b0 5"
b0 4"
b0 3"
b0 2"
01"
b0 0"
b0 /"
b0 ."
b0 -"
b0 ,"
b100000 +"
b0 *"
b0 )"
b0 ("
b0 '"
b0 &"
b0 %"
b0 $"
b0 #"
b0 ""
b0 !"
b0 ~
b0 }
b0 |
0{
b0 n
b0 m
b0 l
b100000 k
b1 j
b0 i
bx h
bx g
bx d
0c
b100000 b
b0 a
b0 `
b100000 ]
b0 \
b101 [
b1 Z
b0 Y
b0 X
b0 W
b0 T
b10 S
b0 R
b1 Q
b0 P
b10000 O
b100000 N
b0 M
b100000 L
1K
0J
0I
0H
1E
bx D
b0 C
b0 B
b0 A
0@
b0 ?
0>
0=
bx <
b0 ;
b0 :
b0 9
b1 8
b0 7
b0 6
05
b100000 4
03
bx 2
bx 1
b0 0
bx /
b100000 .
bx -
0,
0+
0*
bx )
bx (
bx '
0&
b100000 %
0"
b0 !
$end
#5000
b100000 P%
1&
#10000
1+
0&
#15000
bx !
bx 0
bx 6
bx n
bx N%
bx O%
1&
#20000
13
bx ;
bx L%
bx :
bx M%
b0 -
1*
0&
#25000
1J
1&
#30000
b0 ;
b0 L%
b0 :
b0 M%
b0 D
b0 g
b101 h
b1 -
b0 )
b0 2
b0 (
b0 1
b0 d
0&
#35000
1&
#40000
b10000 ;
b10000 L%
b11001 :
b11001 M%
b10000 D
b10000 g
b101 h
b10 -
b11001 )
b11001 2
b1 (
b1 1
b1 d
0&
#45000
1&
#50000
b1000 ;
b1000 L%
b110000 :
b110000 M%
b1000 D
b1000 g
b101 h
b11 -
b110000 )
b110000 2
b10 (
b10 1
b10 d
0&
#55000
1&
#60000
b11000 ;
b11000 L%
b1000101 :
b1000101 M%
b11000 D
b11000 g
b101 h
b100 -
b1000101 )
b1000101 2
b11 (
b11 1
b11 d
0&
#65000
1&
#70000
b100 ;
b100 L%
b1010111 :
b1010111 M%
b100 D
b100 g
b101 h
b101 -
b1010111 )
b1010111 2
b100 (
b100 1
b100 d
0&
#75000
1&
#80000
b10100 ;
b10100 L%
b1100110 :
b1100110 M%
b10100 D
b10100 g
b101 h
b110 -
b1100110 )
b1100110 2
b101 (
b101 1
b101 d
0&
#85000
1&
#90000
b1100 ;
b1100 L%
b1110000 :
b1110000 M%
b1100 D
b1100 g
b101 h
b111 -
b1110000 )
b1110000 2
b110 (
b110 1
b110 d
0&
#95000
1&
#100000
b11100 ;
b11100 L%
b1110101 :
b1110101 M%
b11100 D
b11100 g
b101 h
b1000 -
b1110101 )
b1110101 2
b111 (
b111 1
b111 d
0&
#105000
1&
#110000
b10 ;
b10 L%
b1110110 :
b1110110 M%
b10 D
b10 g
b101 h
b1001 -
b1110110 )
b1110110 2
b1000 (
b1000 1
b1000 d
0&
#115000
1&
#120000
b10010 ;
b10010 L%
b1110001 :
b1110001 M%
b10010 D
b10010 g
b101 h
b1010 -
b1110001 )
b1110001 2
b1001 (
b1001 1
b1001 d
0&
#125000
1&
#130000
b1010 ;
b1010 L%
b1101000 :
b1101000 M%
b1010 D
b1010 g
b101 h
b1011 -
b1101000 )
b1101000 2
b1010 (
b1010 1
b1010 d
0&
#135000
1&
#140000
b11010 ;
b11010 L%
b1011011 :
b1011011 M%
b11010 D
b11010 g
b101 h
b1100 -
b1011011 )
b1011011 2
b1011 (
b1011 1
b1011 d
0&
#145000
1&
#150000
b110 ;
b110 L%
b1001010 :
b1001010 M%
b110 D
b110 g
b101 h
b1101 -
b1001010 )
b1001010 2
b1100 (
b1100 1
b1100 d
0&
#155000
1&
#160000
b10110 ;
b10110 L%
b110101 :
b110101 M%
b10110 D
b10110 g
b101 h
b1110 -
b110101 )
b110101 2
b1101 (
b1101 1
b1101 d
0&
#165000
1&
#170000
b1110 ;
b1110 L%
b11110 :
b11110 M%
b1110 D
b1110 g
b101 h
b1111 -
b11110 )
b11110 2
b1110 (
b1110 1
b1110 d
0&
#175000
1&
#180000
b11110 ;
b11110 L%
b111 :
b111 M%
b11110 D
b11110 g
b101 h
b10000 -
b111 )
b111 2
b1111 (
b1111 1
b1111 d
0&
#185000
1&
#190000
b1 ;
b1 L%
b0 :
b0 M%
b1 D
b1 g
b101 h
b10001 -
b0 )
b0 2
b10000 (
b10000 1
b10000 d
0&
#195000
1&
#200000
b10001 ;
b10001 L%
b11111001 :
b11111001 M%
b10001 D
b10001 g
b101 h
b10010 -
b11111001 )
b11111001 2
b10001 (
b10001 1
b10001 d
0&
#205000
1&
#210000
b1001 ;
b1001 L%
b11100010 :
b11100010 M%
b1001 D
b1001 g
b101 h
b10011 -
b11100010 )
b11100010 2
b10010 (
b10010 1
b10010 d
0&
#215000
1&
#220000
b11001 ;
b11001 L%
b11001011 :
b11001011 M%
b11001 D
b11001 g
b101 h
b10100 -
b11001011 )
b11001011 2
b10011 (
b10011 1
b10011 d
0&
#225000
1&
#230000
b101 ;
b101 L%
b10110110 :
b10110110 M%
b101 D
b101 g
b101 h
b10101 -
b10110110 )
b10110110 2
b10100 (
b10100 1
b10100 d
0&
#235000
1&
#240000
b10101 ;
b10101 L%
b10100101 :
b10100101 M%
b10101 D
b10101 g
b101 h
b10110 -
b10100101 )
b10100101 2
b10101 (
b10101 1
b10101 d
0&
#245000
1&
#250000
b1101 ;
b1101 L%
b10011000 :
b10011000 M%
b1101 D
b1101 g
b101 h
b10111 -
b10011000 )
b10011000 2
b10110 (
b10110 1
b10110 d
0&
#255000
1&
#260000
b11101 ;
b11101 L%
b10001111 :
b10001111 M%
b11101 D
b11101 g
b101 h
b11000 -
b10001111 )
b10001111 2
b10111 (
b10111 1
b10111 d
0&
#265000
1&
#270000
b11 ;
b11 L%
b10001010 :
b10001010 M%
b11 D
b11 g
b101 h
b11001 -
b10001010 )
b10001010 2
b11000 (
b11000 1
b11000 d
0&
#275000
1&
#280000
b10011 ;
b10011 L%
b10001111 :
b10001111 M%
b10011 D
b10011 g
b101 h
b11010 -
b10001111 )
b10001111 2
b11001 (
b11001 1
b11001 d
0&
#285000
1&
#290000
b1011 ;
b1011 L%
b10011000 :
b10011000 M%
b1011 D
b1011 g
b101 h
b11011 -
b10011000 )
b10011000 2
b11010 (
b11010 1
b11010 d
0&
#295000
1&
#300000
b11011 ;
b11011 L%
b10100101 :
b10100101 M%
b11011 D
b11011 g
b101 h
b11100 -
b10100101 )
b10100101 2
b11011 (
b11011 1
b11011 d
0&
#305000
1&
#310000
b111 ;
b111 L%
b10110110 :
b10110110 M%
b111 D
b111 g
b101 h
b11101 -
b10110110 )
b10110110 2
b11100 (
b11100 1
b11100 d
0&
#315000
1&
#320000
b10111 ;
b10111 L%
b11001011 :
b11001011 M%
b10111 D
b10111 g
b101 h
b11110 -
b11001011 )
b11001011 2
b11101 (
b11101 1
b11101 d
0&
#325000
1&
#330000
b1111 ;
b1111 L%
b11100010 :
b11100010 M%
b1111 D
b1111 g
b101 h
b11111 -
b11100010 )
b11100010 2
b11110 (
b11110 1
b11110 d
0&
#335000
1&
#340000
b1 #"
03
b0 ;
b0 L%
b0 :
b0 M%
b11111 D
b11111 g
b101 h
1,
0*
b100000 -
b11111001 )
b11111001 2
b11111 (
b11111 1
b11111 d
0&
#345000
0E
b0 <
b0 K%
b10 #"
0J
0K
1I
b1 &"
1&
#350000
b10 #"
0,
0&
#355000
b11 #"
b10 &"
b0 !
b0 0
b0 6
b0 n
b0 N%
b0 O%
1&
#360000
0&
#365000
b1 <
b1 K%
b100 #"
b1 C
b1 ~
b11 &"
1&
#370000
0&
#375000
b0 <
b0 K%
b101 #"
b0 C
b0 ~
b100 &"
b1 }
1&
#380000
0&
#385000
b110 #"
b101 &"
1&
#390000
0&
#395000
13
b111 #"
1@
b110 &"
1{
1&
#400000
0&
#405000
b1 ;
b1 L%
b1000 #"
b1 B
b1 !"
1@
b111 &"
1&
#410000
0&
#415000
03
b0 ;
b0 L%
b1 #"
0@
b0 B
b0 !"
b1000 &"
1&
#420000
0&
#425000
b10 #"
15
0{
b1 &"
1&
#430000
0&
#435000
b10 ;
b10 L%
b10 B
b10 !"
b11 8
b11 Q
b11 j
b10 9
b10 R
b10 i
b10 T
b11 #"
b1 Y
b10 &"
05
1&
#440000
0&
#445000
b11 <
b11 K%
b100 #"
b11 C
b11 ~
b11 &"
1&
#450000
0&
