FP4_E2M1/dft_waveform.vcd
$date
	Tue Dec 16 14:36:21 2025
$end
$version
	Icarus Verilog
$end
$timescale
	1ps
$end
$scope module tb_dft $end
$var wire 1 ! error $end
$var wire 1 " done $end
$var wire 1 # dft_ready $end
$var wire 1 $ data_out_valid $end
$var wire 8 % data_out [7:0] $end
$var reg 5 & N [4:0] $end
$var reg 1 ' clk $end
$var reg 8 ( data_in [7:0] $end
$var reg 1 ) data_in_valid $end
$var reg 1 * rst $end
$var reg 1 + start $end
$var integer 32 , i [31:0] $end
$var integer 32 - j [31:0] $end
$var integer 32 . output_index [31:0] $end
$var integer 32 / test_fail [31:0] $end
$var integer 32 0 test_pass [31:0] $end
$scope module uut $end
$var wire 5 1 N [4:0] $end
$var wire 1 ' clk $end
$var wire 8 2 data_in [7:0] $end
$var wire 1 ) data_in_valid $end
$var wire 1 " done $end
$var wire 1 * rst $end
$var wire 1 + start $end
$var wire 8 3 rd_data [7:0] $end
$var wire 1 ! error $end
$var wire 1 4 dft_done $end
$var reg 1 5 bank_sel $end
$var reg 8 6 data_out [7:0] $end
$var reg 1 $ data_out_valid $end
$var reg 1 # dft_ready $end
$var reg 1 7 dft_start $end
$var reg 5 8 input_count [4:0] $end
$var reg 2 9 mem_next_state [1:0] $end
$var reg 2 : mem_state [1:0] $end
$var reg 5 ; rd_addr [4:0] $end
$var reg 5 < wr_addr [4:0] $end
$var reg 1 = wr_en $end
$scope module dft_core_inst $end
$var wire 5 > N [4:0] $end
$var wire 1 5 bank_sel $end
$var wire 1 ' clk $end
$var wire 5 ? ext_rd_addr [4:0] $end
$var wire 5 @ ext_wr_addr [4:0] $end
$var wire 8 A ext_wr_data [7:0] $end
$var wire 1 = ext_wr_en $end
$var wire 1 B final_wr_en $end
$var wire 8 C rd_data_0 [7:0] $end
$var wire 1 * rst $end
$var wire 1 7 start $end
$var wire 8 D twiddle_out [7:0] $end
$var wire 5 E twiddle_k [4:0] $end
$var wire 8 F mult_result [7:0] $end
$var wire 4 G mult_real [3:0] $end
$var wire 4 H mult_imag [3:0] $end
$var wire 8 I int_rd_data [7:0] $end
$var wire 8 J final_wr_data [7:0] $end
$var wire 5 K final_wr_addr [4:0] $end
$var wire 5 L final_rd_addr [4:0] $end
$var wire 8 M accum_next [7:0] $end
$var reg 8 N Xk_accum [7:0] $end
$var reg 8 O Xn [7:0] $end
$var reg 1 4 done $end
$var reg 1 ! error $end
$var reg 5 P int_rd_addr [4:0] $end
$var reg 5 Q int_wr_addr [4:0] $end
$var reg 8 R int_wr_data [7:0] $end
$var reg 1 S int_wr_en $end
$var reg 5 T k [4:0] $end
$var reg 5 U n [4:0] $end
$var reg 4 V next_state [3:0] $end
$var reg 8 W product [7:0] $end
$var reg 4 X state [3:0] $end
$var reg 8 Y twiddle [7:0] $end
$scope module complex_adder $end
$var wire 8 Z a [7:0] $end
$var wire 8 [ b [7:0] $end
$var wire 1 \ sub $end
$var wire 4 ] out_real [3:0] $end
$var wire 4 ^ out_imag [3:0] $end
$var wire 8 _ out [7:0] $end
$var wire 4 ` b_real [3:0] $end
$var wire 4 a b_imag [3:0] $end
$var wire 4 b a_real [3:0] $end
$var wire 4 c a_imag [3:0] $end
$scope module adder_imag $end
$var wire 4 d a [3:0] $end
$var wire 1 e a_larger $end
$var wire 4 f b [3:0] $end
$var wire 1 g do_sub $end
$var wire 1 h sign_b_eff $end
$var wire 1 \ sub $end
$var wire 1 i sign_s $end
$var wire 1 j sign_l $end
$var wire 1 k sign_b $end
$var wire 1 l sign_a $end
$var wire 3 m sig_s_unaligned [2:0] $end
$var wire 3 n sig_s [2:0] $end
$var wire 4 o sig_result_raw [3:0] $end
$var wire 3 p sig_l [2:0] $end
$var wire 4 q out [3:0] $end
$var wire 1 r mant_s $end
$var wire 1 s mant_out $end
$var wire 1 t mant_l $end
$var wire 1 u mant_b $end
$var wire 1 v mant_a $end
$var wire 1 w hidden_s $end
$var wire 1 x hidden_l $end
$var wire 2 y exp_s [1:0] $end
$var wire 2 z exp_l [1:0] $end
$var wire 2 { exp_diff [1:0] $end
$var wire 2 | exp_b [1:0] $end
$var wire 2 } exp_a [1:0] $end
$var reg 2 ~ exp_norm [1:0] $end
$var reg 4 !" result [3:0] $end
$var reg 3 "" sig_norm [2:0] $end
$var reg 1 #" sign_out $end
$upscope $end
$scope module adder_real $end
$var wire 4 $" a [3:0] $end
$var wire 1 %" a_larger $end
$var wire 4 &" b [3:0] $end
$var wire 1 '" do_sub $end
$var wire 1 (" sign_b_eff $end
$var wire 1 \ sub $end
$var wire 1 )" sign_s $end
$var wire 1 *" sign_l $end
$var wire 1 +" sign_b $end
$var wire 1 ," sign_a $end
$var wire 3 -" sig_s_unaligned [2:0] $end
$var wire 3 ." sig_s [2:0] $end
$var wire 4 /" sig_result_raw [3:0] $end
$var wire 3 0" sig_l [2:0] $end
$var wire 4 1" out [3:0] $end
$var wire 1 2" mant_s $end
$var wire 1 3" mant_out $end
$var wire 1 4" mant_l $end
$var wire 1 5" mant_b $end
$var wire 1 6" mant_a $end
$var wire 1 7" hidden_s $end
$var wire 1 8" hidden_l $end
$var wire 2 9" exp_s [1:0] $end
$var wire 2 :" exp_l [1:0] $end
$var wire 2 ;" exp_diff [1:0] $end
$var wire 2 <" exp_b [1:0] $end
$var wire 2 =" exp_a [1:0] $end
$var reg 2 >" exp_norm [1:0] $end
$var reg 4 ?" result [3:0] $end
$var reg 3 @" sig_norm [2:0] $end
$var reg 1 A" sign_out $end
$upscope $end
$upscope $end
$scope module complex_multiplier $end
$var wire 4 B" a [3:0] $end
$var wire 4 C" b [3:0] $end
$var wire 4 D" c [3:0] $end
$var wire 4 E" d [3:0] $end
$var wire 4 F" out_imag [3:0] $end
$var wire 4 G" out_real [3:0] $end
$var wire 4 H" res_real [3:0] $end
$var wire 4 I" res_imag [3:0] $end
$var wire 4 J" bd [3:0] $end
$var wire 4 K" bc [3:0] $end
$var wire 4 L" ad [3:0] $end
$var wire 4 M" ac [3:0] $end
$scope module a1 $end
$var wire 1 N" a_larger $end
$var wire 1 O" do_sub $end
$var wire 1 P" sign_b_eff $end
$var wire 1 Q" sub $end
$var wire 1 R" sign_s $end
$var wire 1 S" sign_l $end
$var wire 1 T" sign_b $end
$var wire 1 U" sign_a $end
$var wire 3 V" sig_s_unaligned [2:0] $end
$var wire 3 W" sig_s [2:0] $end
$var wire 4 X" sig_result_raw [3:0] $end
$var wire 3 Y" sig_l [2:0] $end
$var wire 4 Z" out [3:0] $end
$var wire 1 [" mant_s $end
$var wire 1 \" mant_out $end
$var wire 1 ]" mant_l $end
$var wire 1 ^" mant_b $end
$var wire 1 _" mant_a $end
$var wire 1 `" hidden_s $end
$var wire 1 a" hidden_l $end
$var wire 2 b" exp_s [1:0] $end
$var wire 2 c" exp_l [1:0] $end
$var wire 2 d" exp_diff [1:0] $end
$var wire 2 e" exp_b [1:0] $end
$var wire 2 f" exp_a [1:0] $end
$var wire 4 g" b [3:0] $end
$var wire 4 h" a [3:0] $end
$var reg 2 i" exp_norm [1:0] $end
$var reg 4 j" result [3:0] $end
$var reg 3 k" sig_norm [2:0] $end
$var reg 1 l" sign_out $end
$upscope $end
$scope module m1 $end
$var wire 4 m" a [3:0] $end
$var wire 1 n" a_zero $end
$var wire 4 o" b [3:0] $end
$var wire 1 p" b_zero $end
$var wire 1 q" sign_out $end
$var wire 1 r" sign_b $end
$var wire 1 s" sign_a $end
$var wire 3 t" sig_b [2:0] $end
$var wire 3 u" sig_a [2:0] $end
$var wire 5 v" prod_norm [4:0] $end
$var wire 5 w" prod [4:0] $end
$var wire 4 x" out [3:0] $end
$var wire 1 y" need_norm $end
$var wire 1 z" mant_out $end
$var wire 1 {" mant_b $end
$var wire 1 |" mant_a $end
$var wire 1 }" hidden_b $end
$var wire 1 ~" hidden_a $end
$var wire 4 !# exp_temp [3:0] $end
$var wire 3 "# exp_sum [2:0] $end
$var wire 4 ## exp_norm [3:0] $end
$var wire 2 $# exp_b [1:0] $end
$var wire 2 %# exp_a [1:0] $end
$var reg 4 &# output_reg [3:0] $end
$upscope $end
$scope module m2 $end
$var wire 4 '# a [3:0] $end
$var wire 1 (# a_zero $end
$var wire 4 )# b [3:0] $end
$var wire 1 *# b_zero $end
$var wire 1 +# sign_out $end
$var wire 1 ,# sign_b $end
$var wire 1 -# sign_a $end
$var wire 3 .# sig_b [2:0] $end
$var wire 3 /# sig_a [2:0] $end
$var wire 5 0# prod_norm [4:0] $end
$var wire 5 1# prod [4:0] $end
$var wire 4 2# out [3:0] $end
$var wire 1 3# need_norm $end
$var wire 1 4# mant_out $end
$var wire 1 5# mant_b $end
$var wire 1 6# mant_a $end
$var wire 1 7# hidden_b $end
$var wire 1 8# hidden_a $end
$var wire 4 9# exp_temp [3:0] $end
$var wire 3 :# exp_sum [2:0] $end
$var wire 4 ;# exp_norm [3:0] $end
$var wire 2 <# exp_b [1:0] $end
$var wire 2 =# exp_a [1:0] $end
$var reg 4 ># output_reg [3:0] $end
$upscope $end
$scope module m3 $end
$var wire 4 ?# a [3:0] $end
$var wire 1 @# a_zero $end
$var wire 4 A# b [3:0] $end
$var wire 1 B# b_zero $end
$var wire 1 C# sign_out $end
$var wire 1 D# sign_b $end
$var wire 1 E# sign_a $end
$var wire 3 F# sig_b [2:0] $end
$var wire 3 G# sig_a [2:0] $end
$var wire 5 H# prod_norm [4:0] $end
$var wire 5 I# prod [4:0] $end
$var wire 4 J# out [3:0] $end
$var wire 1 K# need_norm $end
$var wire 1 L# mant_out $end
$var wire 1 M# mant_b $end
$var wire 1 N# mant_a $end
$var wire 1 O# hidden_b $end
$var wire 1 P# hidden_a $end
$var wire 4 Q# exp_temp [3:0] $end
$var wire 3 R# exp_sum [2:0] $end
$var wire 4 S# exp_norm [3:0] $end
$var wire 2 T# exp_b [1:0] $end
$var wire 2 U# exp_a [1:0] $end
$var reg 4 V# output_reg [3:0] $end
$upscope $end
$scope module m4 $end
$var wire 4 W# a [3:0] $end
$var wire 1 X# a_zero $end
$var wire 4 Y# b [3:0] $end
$var wire 1 Z# b_zero $end
$var wire 1 [# sign_out $end
$var wire 1 \# sign_b $end
$var wire 1 ]# sign_a $end
$var wire 3 ^# sig_b [2:0] $end
$var wire 3 _# sig_a [2:0] $end
$var wire 5 `# prod_norm [4:0] $end
$var wire 5 a# prod [4:0] $end
$var wire 4 b# out [3:0] $end
$var wire 1 c# need_norm $end
$var wire 1 d# mant_out $end
$var wire 1 e# mant_b $end
$var wire 1 f# mant_a $end
$var wire 1 g# hidden_b $end
$var wire 1 h# hidden_a $end
$var wire 4 i# exp_temp [3:0] $end
$var wire 3 j# exp_sum [2:0] $end
$var wire 4 k# exp_norm [3:0] $end
$var wire 2 l# exp_b [1:0] $end
$var wire 2 m# exp_a [1:0] $end
$var reg 4 n# output_reg [3:0] $end
$upscope $end
$scope module s1 $end
$var wire 4 o# a [3:0] $end
$var wire 1 p# a_larger $end
$var wire 4 q# b [3:0] $end
$var wire 1 r# do_sub $end
$var wire 1 s# sign_b_eff $end
$var wire 1 t# sub $end
$var wire 1 u# sign_s $end
$var wire 1 v# sign_l $end
$var wire 1 w# sign_b $end
$var wire 1 x# sign_a $end
$var wire 3 y# sig_s_unaligned [2:0] $end
$var wire 3 z# sig_s [2:0] $end
$var wire 4 {# sig_result_raw [3:0] $end
$var wire 3 |# sig_l [2:0] $end
$var wire 4 }# out [3:0] $end
$var wire 1 ~# mant_s $end
$var wire 1 !$ mant_out $end
$var wire 1 "$ mant_l $end
$var wire 1 #$ mant_b $end
$var wire 1 $$ mant_a $end
$var wire 1 %$ hidden_s $end
$var wire 1 &$ hidden_l $end
$var wire 2 '$ exp_s [1:0] $end
$var wire 2 ($ exp_l [1:0] $end
$var wire 2 )$ exp_diff [1:0] $end
$var wire 2 *$ exp_b [1:0] $end
$var wire 2 +$ exp_a [1:0] $end
$var reg 2 ,$ exp_norm [1:0] $end
$var reg 4 -$ result [3:0] $end
$var reg 3 .$ sig_norm [2:0] $end
$var reg 1 /$ sign_out $end
$upscope $end
$upscope $end
$scope module memory_inst $end
$var wire 1 5 bank_sel $end
$var wire 1 ' clk $end
$var wire 5 0$ rd_addr_0 [4:0] $end
$var wire 1 * rst $end
$var wire 5 1$ wr_addr_1 [4:0] $end
$var wire 8 2$ wr_data_1 [7:0] $end
$var wire 1 B wr_en_1 $end
$var wire 8 3$ rd_data_0 [7:0] $end
$var integer 32 4$ i [31:0] $end
$upscope $end
$scope module twiddle_inst $end
$var wire 5 5$ k [4:0] $end
$var wire 5 6$ n [4:0] $end
$var reg 5 7$ scaled_k [4:0] $end
$var reg 8 8$ twiddle_out [7:0] $end
$upscope $end
$upscope $end
$upscope $end
$scope task capture_output $end
$upscope $end
$scope task init_test_constant $end
$var integer 32 9$ dft_size [31:0] $end
$upscope $end
$scope task init_test_impulse $end
$upscope $end
$scope task init_test_sin $end
$var integer 32 :$ dft_size [31:0] $end
$var integer 32 ;$ m [31:0] $end
$upscope $end
$scope task load_input $end
$var integer 32 <$ dft_size [31:0] $end
$upscope $end
$scope task reset_sys $end
$upscope $end
$scope task test_16point_dft $end
$upscope $end
$scope task test_8point_constant $end
$upscope $end
$scope task test_8point_impulse $end
$upscope $end
$scope task test_errors $end
$var integer 32 =$ timeout_counter [31:0] $end
$upscope $end
$scope task test_pipeline $end
$upscope $end
$scope task verify_output $end
$var reg 2048 >$ test_name [2047:0] $end
$var integer 32 ?$ dft_size [31:0] $end
$var integer 32 @$ k [31:0] $end
$upscope $end
$upscope $end
$enddefinitions $end
#0
$dumpvars
bx @$
bx ?$
bx >$
bx =$
bx <$
bx ;$
bx :$
bx 9$
b100000 8$
b0 7$
b1000 6$
b0 5$
b100000 4$
b0 3$
b0 2$
b0 1$
b0 0$
0/$
b0 .$
b0 -$
b0 ,$
b0 +$
b0 *$
b0 )$
b0 ($
b0 '$
0&$
0%$
0$$
0#$
0"$
0!$
0~#
b0 }#
b0 |#
b0 {#
b0 z#
b0 y#
0x#
0w#
0v#
1u#
1t#
1s#
1r#
b0 q#
1p#
b0 o#
b0 n#
b0 m#
b0 l#
b1111 k#
b0 j#
b1111 i#
0h#
0g#
0f#
0e#
0d#
0c#
b0 b#
b0 a#
b0 `#
b0 _#
b0 ^#
0]#
0\#
0[#
1Z#
b0 Y#
1X#
b0 W#
b0 V#
b0 U#
b0 T#
b1111 S#
b0 R#
b1111 Q#
0P#
0O#
0N#
0M#
0L#
0K#
b0 J#
b0 I#
b0 H#
b0 G#
b0 F#
0E#
0D#
0C#
1B#
b0 A#
1@#
b0 ?#
b0 >#
b0 =#
b0 <#
b1111 ;#
b0 :#
b1111 9#
08#
07#
06#
05#
04#
03#
b0 2#
b0 1#
b0 0#
b0 /#
b0 .#
0-#
0,#
0+#
1*#
b0 )#
1(#
b0 '#
b0 &#
b0 %#
b0 $#
b1111 ##
b0 "#
b1111 !#
0~"
0}"
0|"
0{"
0z"
0y"
b0 x"
b0 w"
b0 v"
b0 u"
b0 t"
0s"
0r"
0q"
1p"
b0 o"
1n"
b0 m"
0l"
b0 k"
b0 j"
b0 i"
b0 h"
b0 g"
b0 f"
b0 e"
b0 d"
b0 c"
b0 b"
0a"
0`"
0_"
0^"
0]"
0\"
0["
b0 Z"
b0 Y"
b0 X"
b0 W"
b0 V"
0U"
0T"
0S"
0R"
0Q"
0P"
0O"
1N"
b0 M"
b0 L"
b0 K"
b0 J"
b0 I"
b0 H"
b0 G"
b0 F"
b0 E"
b0 D"
b0 C"
b0 B"
0A"
b0 @"
b0 ?"
b0 >"
b0 ="
b0 <"
b0 ;"
b0 :"
b0 9"
08"
07"
06"
05"
04"
03"
02"
b0 1"
b0 0"
b0 /"
b0 ."
b0 -"
0,"
0+"
0*"
0)"
0("
0'"
b0 &"
1%"
b0 $"
0#"
b0 ""
b0 !"
b0 ~
b0 }
b0 |
b0 {
b0 z
b0 y
0x
0w
0v
0u
0t
0s
0r
b0 q
b0 p
b0 o
b0 n
b0 m
0l
0k
0j
0i
0h
0g
b0 f
1e
b0 d
b0 c
b0 b
b0 a
b0 `
b0 _
b0 ^
b0 ]
0\
b0 [
b0 Z
b0 Y
b0 X
b0 W
b0 V
b0 U
b0 T
0S
b0 R
b0 Q
b0 P
b0 O
b0 N
b0 M
b0 L
b0 K
b0 J
b0 I
b0 H
b0 G
b0 F
b0 E
b100000 D
b0 C
0B
b0 A
b0 @
b0 ?
b1000 >
0=
b0 <
b0 ;
b0 :
b0 9
b0 8
07
b0 6
05
04
b0 3
b0 2
b1000 1
b0 0
b0 /
b0 .
bx -
bx ,
0+
0*
0)
b0 (
0'
b1000 &
b0 %
0$
1#
0"
0!
$end
#5000
b100000 4$
1'
#10000
1*
0'
#15000
1'
#20000
b0 ,
b1000 <$
b100000 -
0'
#25000
1'
#30000
b1 9
1)
b100000 (
b100000 2
b100000 A
0'
#35000
1B
b100000 J
b100000 2$
0#
b1 8
1=
b1 :
1'
#40000
b1 ,
0'
#45000
b1 K
b1 1$
b10 8
b1 <
b1 @
1'
#50000
b0 J
b0 2$
b0 (
b0 2
b0 A
0'
#55000
b10 K
b10 1$
b11 8
b10 <
b10 @
1'
#60000
b10 ,
0'
#65000
b11 K
b11 1$
b100 8
b11 <
b11 @
1'
#70000
0'
#75000
b100 K
b100 1$
b101 8
b100 <
b100 @
1'
#80000
b11 ,
0'
#85000
b101 K
b101 1$
b110 8
b101 <
b101 @
1'
#90000
0'
#95000
b110 K
b110 1$
b111 8
b110 <
b110 @
1'
#100000
b100 ,
0'
#105000
b10 9
b111 K
b111 1$
b1000 8
b111 <
b111 @
1'
#110000
0'
#115000
b1 V
b100000 3
b100000 C
b100000 I
b100000 3$
0B
b0 K
b0 1$
17
15
0=
b10 :
1'
#120000
b101 ,
0'
#125000
b10 V
07
b1 X
1'
#130000
0'
#135000
b11 V
b10 X
1'
#140000
b110 ,
0'
#145000
b100 V
b11 X
1'
#150000
0'
#155000
0n"
b0 ##
0@#
b0 S#
b0 !#
b1 "#
b10 u"
1~"
b1 %#
b0 Q#
b1 R#
b10 G#
1P#
b1 U#
b10 B"
b10 m"
b10 ?#
b101 V
b100000 O
b100 X
1'
#160000
b111 ,
0'
#165000
b100000 F
b10 G
b10 G"
b10 H"
b10 }#
b10 -$
b1 ,$
b10 .$
b10 {#
b1 )$
b10 |#
1&$
b1 ($
b1 +$
b10 M"
b10 x"
b10 &#
b10 o#
0p"
b1 ##
b100 v"
0Z#
b0 k#
b1 !#
b10 "#
b100 w"
b10 t"
1}"
b1 $#
b0 i#
b1 j#
b10 ^#
1g#
b1 l#
b10 D"
b10 o"
b10 Y#
b110 V
b100000 Y
b101 X
1'
#170000
0'
#175000
b111 V
b110 X
1'
#180000
b1000 ,
0'
#185000
b100000 M
b100000 _
b10 ]
b10 1"
b10 ?"
b1 >"
b10 @"
b10 /"
b10 0"
18"
b1 :"
0%"
b1 ;"
b0 -"
07"
b0 9"
b1 <"
b10 `
b10 &"
b1000 V
b100000 W
b100000 [
b111 X
1'
#190000
0)
0'
#195000
b1000000 M
b1000000 _
b100 ]
b100 1"
b100 ?"
b10 >"
b100 /"
1%"
b10 ."
b0 ;"
b10 -"
17"
b1 9"
b1 ="
b10 b
b10 $"
b10 V
b100000 N
b100000 Z
b1000 X
1'
#200000
0'
#205000
b11 V
b1 U
b10 X
1'
#210000
0'
#215000
b0 3
b0 C
b0 I
b0 3$
b1 L
b1 0$
b100 V
b1 P
b11 X
1'
#220000
0'
#225000
b0 F
b0 G
b0 G"
b0 H"
b0 }#
b0 -$
b0 ,$
b0 .$
b0 {#
b0 )$
b0 |#
0&$
b0 ($
b0 +$
b0 M"
b0 x"
b0 &#
b0 o#
1n"
b0 ##
b0 v"
1@#
b1111 S#
b0 !#
b1 "#
b0 w"
b0 u"
0~"
b0 %#
b1111 Q#
b0 R#
b0 G#
0P#
b0 U#
b0 B"
b0 m"
b0 ?#
b101 V
b0 O
b100 X
1'
#230000
0'
#235000
b110 V
b101 X
1'
#240000
0'
#245000
b111 V
b110 X
1'
#250000
0'
#255000
b100000 M
b100000 _
b10 ]
b10 1"
b10 ?"
b1 >"
b10 /"
b0 ."
b1 ;"
b0 -"
07"
b0 9"
b0 <"
b0 `
b0 &"
b1000 V
b0 W
b0 [
b111 X
1'
#260000
0'
#265000
b10 V
b1000 X
1'
#270000
0'
#275000
b11 V
b10 U
b10 X
1'
#280000
0'
#285000
b10 L
b10 0$
b100 V
b10 P
b11 X
1'
#290000
0'
#295000
b101 V
b100 X
1'
#300000
0'
#305000
b110 V
b101 X
1'
#310000
0'
#315000
b111 V
b110 X
1'
#320000
0'
#325000
b1000 V
b111 X
1'
#330000
0'
#335000
b10 V
b1000 X
1'
#340000
0'
#345000
b11 V
b11 U
b10 X
1'
#350000
0'
#355000
b11 L
b11 0$
b100 V
b11 P
b11 X
1'
#360000
0'
#365000
b101 V
b100 X
1'
#370000
0'
#375000
b110 V
b101 X
1'
#380000
0'
#385000
b111 V
b110 X
1'
#390000
0'
#395000
b1000 V
b111 X
1'
#400000
0'
#405000
b10 V
b1000 X
1'
#410000
0'
#415000
b11 V
b100 U
b10 X
1'
#420000
0'
#425000
b100 L
b100 0$
b100 V
b100 P
b11 X
1'
#430000
0'
#435000
b101 V
b100 X
1'
#440000
0'
#445000
b110 V
b101 X
1'
#450000
0'
#455000
b111 V
b110 X
1'
#460000
0'
#465000
b1000 V
b111 X
1'
#470000
0'
#475000
b10 V
b1000 X
1'
#480000
0'
#485000
b11 V
b101 U
b10 X
1'
#490000
0'
#495000
b101 L
b101 0$
b100 V
b101 P
b11 X
1'
#500000
0'
#505000
b101 V
b100 X
1'
#510000
0'
#515000
b110 V
b101 X
1'
#520000
0'
#525000
b111 V
b110 X
1'
#530000
0'
#535000
b1000 V
b111 X
1'
#540000
0'
#545000
b10 V
b1000 X
1'
#550000
0'
#555000
b11 V
b110 U
b10 X
1'
#560000
0'
#565000
b110 L
b110 0$
b100 V
b110 P
b11 X
1'
#570000
0'
#575000
b101 V
b100 X
1'
#580000
0'
#585000
b110 V
b101 X
1'
#590000
0'
#595000
b111 V
b110 X
1'
#600000
0'
#605000
b1000 V
b111 X
1'
#610000
0'
#615000
b10 V
b1000 X
1'
#620000
0'
#625000
b11 V
b111 U
b10 X
1'
#630000
0'
#635000
b111 L
b111 0$
b100 V
b111 P
b11 X
1'
#640000
0'
#645000
b101 V
b100 X
1'
#650000
0'
#655000
b110 V
b101 X
1'
#660000
0'
#665000
b111 V
b110 X
1'
#670000
0'
#675000
b1000 V
b111 X
1'
#680000
0'
#685000
b1001 V
b1000 X
1'
#690000
0'
#695000
b1010 V
b1000 U
b1001 X
1'
#700000
0'
#705000
b100000 J
b100000 2$
1B
b1 V
b100000 R
1S
b1010 X
1'
#710000
0'
#715000
0B
b10 V
b1 T
0S
b1 X
1'
#720000
0'
#725000
b0 M
b0 _
b0 ]
b0 1"
b0 ?"
b0 >"
b0 @"
b0 /"
b0 ;"
b0 0"
08"
b0 :"
b0 ="
b0 b
b0 $"
b11 V
b0 N
b0 Z
b0 U
b10 X
1'
#730000
0'
#735000
b100000 3
b100000 C
b100000 I
b100000 3$
b0 L
b0 0$
b100 V
b0 P
b11 X
1'
#740000
0'
#745000
b100000 F
b10 G
b10 G"
b10 H"
b10 }#
b10 -$
b1 ,$
b10 .$
b10 {#
b1 )$
b10 |#
1&$
b1 ($
b1 +$
b10 M"
b10 x"
b10 &#
b10 o#
0n"
b1 ##
b100 v"
0@#
b0 S#
b1 !#
b10 "#
b100 w"
b10 u"
1~"
b1 %#
b0 Q#
b1 R#
b10 G#
1P#
b1 U#
b10 B"
b10 m"
b10 ?#
b101 V
b100000 O
b100 X
1'
#750000
0'
#755000
b110 V
b101 X
1'
#760000
0'
#765000
b111 V
b110 X
1'
#770000
0'
#775000
b100000 M
b100000 _
b10 ]
b10 1"
b10 ?"
b1 >"
b10 @"
b10 /"
b10 0"
18"
b1 :"
0%"
b1 ;"
b0 -"
07"
b0 9"
b1 <"
b10 `
b10 &"
b1000 V
b100000 W
b100000 [
b111 X
1'
#780000
0'
#785000
b1000000 M
b1000000 _
b100 ]
b100 1"
b100 ?"
b10 >"
b100 /"
1%"
b10 ."
b0 ;"
b10 -"
17"
b1 9"
b1 ="
b10 b
b10 $"
b10 V
b100000 N
b100000 Z
b1000 X
1'
#790000
0'
#795000
b11001 D
b11001 8$
b100 7$
b11 V
b1 E
b1 5$
b1 U
b10 X
1'
#800000
0'
#805000
b0 3
b0 C
b0 I
b0 3$
b1 L
b1 0$
b100 V
b1 P
b11 X
1'
#810000
0'
#815000
b0 F
b0 G
b0 G"
b0 H"
b0 }#
b0 -$
b0 ,$
b0 .$
b0 {#
b0 )$
b0 |#
0&$
b0 ($
b0 +$
b0 M"
b0 x"
b0 &#
b0 o#
1n"
b0 ##
b0 v"
1@#
b1111 S#
b0 !#
b1 "#
b0 w"
b0 u"
0~"
b0 %#
b1111 Q#
b0 R#
b0 G#
0P#
b0 U#
b0 B"
b0 m"
b0 ?#
b101 V
b0 O
b100 X
1'
#820000
0'
#825000
0*#
0B#
b1111 ##
b1111 k#
1+#
1C#
b1111 !#
b0 "#
0}"
b0 $#
b1 t"
1{"
b1111 i#
b0 j#
0g#
b0 l#
b1 ^#
1e#
1,#
b1 .#
15#
1D#
b1 F#
1M#
b1 D"
b1 o"
b1 Y#
b1001 E"
b1001 )#
b1001 A#
b110 V
b11001 Y
b101 X
1'
#830000
0'
#835000
b111 V
b110 X
1'
#840000
0'
#845000
b100000 M
b100000 _
b10 ]
b10 1"
b10 ?"
b1 >"
b10 /"
b0 ."
b1 ;"
b0 -"
07"
b0 9"
b0 <"
b0 `
b0 &"
b1000 V
b0 W
b0 [
b111 X
1'
#850000
0'
#855000
b10 V
b1000 X
1'
#860000
0'
#865000
b10 D
b10 8$
b1000 7$
b11 V
b10 E
b10 5$
b10 U
b10 X
1'
#870000
0'
#875000
b10 L
b10 0$
b100 V
b10 P
b11 X
1'
#880000
0'
#885000
b101 V
b100 X
1'
#890000
0'
#895000
1p"
1Z#
0+#
b0 ;#
0C#
b0 S#
b0 t"
0{"
b0 ^#
0e#
0,#
b0 9#
b1 :#
17#
b1 <#
b10 .#
05#
0D#
b0 Q#
b1 R#
1O#
b1 T#
b10 F#
0M#
b0 D"
b0 o"
b0 Y#
b10 E"
b10 )#
b10 A#
b110 V
b10 Y
b101 X
1'
#900000
0'
#905000
b111 V
b110 X
1'
#910000
0'
#915000
b1000 V
b111 X
1'
#920000
0'
#925000
b10 V
b1000 X
1'
#930000
0'
#935000
b10011001 D
b10011001 8$
b1100 7$
b11 V
b11 E
b11 5$
b11 U
b10 X
1'
#940000
0'
#945000
b11 L
b11 0$
b100 V
b11 P
b11 X
1'
#950000
0'
#955000
b101 V
b100 X
1'
#960000
0'
#965000
0p"
0Z#
1q"
1[#
1+#
b1111 ;#
1C#
b1111 S#
1r"
b1 t"
1{"
1\#
b1 ^#
1e#
1,#
b1111 9#
b0 :#
07#
b0 <#
b1 .#
15#
1D#
b1111 Q#
b0 R#
0O#
b0 T#
b1 F#
1M#
b1001 D"
b1001 o"
b1001 Y#
b1001 E"
b1001 )#
b1001 A#
b110 V
b10011001 Y
b101 X
1'
#970000
0'
#975000
b111 V
b110 X
1'
#980000
0'
#985000
b1000 V
b111 X
1'
#990000
0'
#995000
b10 V
b1000 X
1'
#1000000
0'
#1005000
b10100000 D
b10100000 8$
b10000 7$
b11 V
b100 E
b100 5$
b100 U
b10 X
1'
#1010000
0'
#1015000
b100 L
b100 0$
b100 V
b100 P
b11 X
1'
#1020000
0'
#1025000
b101 V
b100 X
1'
#1030000
0'
#1035000
1*#
1B#
b0 ##
b0 k#
0+#
0C#
b0 !#
b1 "#
1}"
b1 $#
b10 t"
0{"
b0 i#
b1 j#
1g#
b1 l#
b10 ^#
0e#
0,#
b0 .#
05#
0D#
b0 F#
0M#
b1010 D"
b1010 o"
b1010 Y#
b0 E"
b0 )#
b0 A#
b110 V
b10100000 Y
b101 X
1'
#1040000
0'
#1045000
b111 V
b110 X
1'
#1050000
0'
#1055000
b1000 V
b111 X
1'
#1060000
0'
#1065000
b10 V
b1000 X
1'
#1070000
0'
#1075000
b10011001 D
b10011001 8$
b10100 7$
b11 V
b101 E
b101 5$
b101 U
b10 X
1'
#1080000
0'
#1085000
b101 L
b101 0$
b100 V
b101 P
b11 X
1'
#1090000
0'
#1095000
b101 V
b100 X
1'
#1100000
0'
#1105000
0*#
0B#
b1111 ##
b1111 k#
1+#
1C#
b1111 !#
b0 "#
0}"
b0 $#
b1 t"
1{"
b1111 i#
b0 j#
0g#
b0 l#
b1 ^#
1e#
1,#
b1 .#
15#
1D#
b1 F#
1M#
b1001 D"
b1001 o"
b1001 Y#
b1001 E"
b1001 )#
b1001 A#
b110 V
b10011001 Y
b101 X
1'
#1110000
0'
#1115000
b111 V
b110 X
1'
#1120000
0'
#1125000
b1000 V
b111 X
1'
#1130000
0'
#1135000
b10 V
b1000 X
1'
#1140000
0'
#1145000
b10 D
b10 8$
b11000 7$
b11 V
b110 E
b110 5$
b110 U
b10 X
1'
#1150000
0'
#1155000
b110 L
b110 0$
b100 V
b110 P
b11 X
1'
#1160000
0'
#1165000
b101 V
b100 X
1'
#1170000
0'
#1175000
1p"
1Z#
0q"
0[#
0+#
b0 ;#
0C#
b0 S#
0r"
b0 t"
0{"
0\#
b0 ^#
0e#
0,#
b0 9#
b1 :#
17#
b1 <#
b10 .#
05#
0D#
b0 Q#
b1 R#
1O#
b1 T#
b10 F#
0M#
b0 D"
b0 o"
b0 Y#
b10 E"
b10 )#
b10 A#
b110 V
b10 Y
b101 X
1'
#1180000
0'
#1185000
b111 V
b110 X
1'
